,expertise,Arab_f,Asian_f,Black_f,White_f,Arab_m,Asian_m,Black_m,White_m,domain
0,actuariat,0,0,0,3,0,0,0,6,app
1,administration,0,0,0,1,0,0,0,2,bus
2,affaires internationales,0,1,0,7,1,1,0,7,bus
3,agriculture,1,0,0,6,2,0,0,30,app
4,aliments et nutrition,0,0,0,19,1,0,1,17,app
5,aménagement et urbanisme,0,0,0,4,0,0,0,11,w
6,animaux,0,0,0,2,0,0,0,16,app
7,anthropologie,0,0,0,8,1,0,0,4,soc
8,architecture,0,0,0,4,0,0,0,10,w
9,archéologie,0,0,0,1,0,0,0,5,soc
10,art history,0,0,0,1,0,0,0,1,art
11,art history and liberal arts,0,0,0,0,0,0,0,1,art
12,arts & science,0,0,0,1,0,0,0,1,art
13,arts & science – religion,0,0,0,0,0,0,0,1,art
14,arts visuels,0,0,0,2,0,0,0,5,art
15,arts visuels et médiatiques,0,0,0,22,0,0,0,18,art
16,assurance,0,0,0,1,0,0,0,4,bus
17,astronomie,0,0,0,1,0,0,0,2,pur
18,athletics,0,0,0,2,0,0,0,17,san
19,aéronautique,0,0,0,0,0,0,0,1,app
20,biochemistry,0,0,0,1,0,0,0,0,pur
21,biochemistry and biology,0,0,0,1,0,0,0,0,pur
22,biochimie et microbiologie,0,0,0,3,0,2,0,19,pur
23,biological sciences,0,0,0,1,0,0,0,0,pur
24,biology,0,0,1,9,0,0,0,9,pur
25,buildings & grounds,0,0,0,12,0,0,0,32,app
26,centre de recherche sur la dynamique du système terre (geotop),0,0,0,1,0,0,0,0,pur
27,centre eau terre environnement,1,0,0,6,2,2,0,22,app
28,centre inrs–institut armand-frappier,0,0,0,14,0,1,2,31,san
29,centre urbanisation culture société,0,0,0,17,0,1,0,14,soc
30,centre énergie matériaux télécommunications,3,2,0,1,6,3,0,22,app
31,cerveau et système nerveux,0,0,0,10,0,0,0,31,san
32,chemistry,0,0,0,0,0,0,0,9,pur
33,chimie,1,0,0,7,6,4,1,37,pur
34,cinéma,0,0,0,4,0,0,0,3,art
35,classical studies,0,0,0,3,0,0,0,2,let
36,classical studies and liberal arts,0,0,0,1,0,0,0,0,let
37,communication,0,0,0,11,0,0,1,13,soc
38,communication sociale et publique,0,0,0,25,0,0,3,14,soc
39,communications,0,0,0,2,0,0,0,0,soc
40,comptabilité,0,0,0,4,0,0,0,5,bus
41,computer science,1,0,0,0,4,0,0,4,app
42,condition masculine,0,0,0,0,0,0,0,2,soc
43,consommation,1,0,0,4,1,0,0,5,soc
44,continuing education,1,0,0,3,0,0,0,1,edu
45,criminologie,0,0,0,3,0,0,0,2,soc
46,danse,0,0,0,10,0,0,0,2,art
47,design,0,0,0,2,0,0,0,3,art
48,didactique,0,0,0,18,2,0,0,17,edu
49,didactique des langues,0,0,0,17,0,0,1,6,edu
50,drama,0,0,0,4,0,0,0,7,art
51,droit et justice,0,0,0,25,1,0,2,26,dro
52,décanat (esg),0,0,0,0,0,0,1,2,bus
53,décanat de la faculté de communication,0,0,0,0,0,0,0,2,soc
54,démographie,0,0,0,0,0,0,0,3,soc
55,eau,0,0,0,3,0,0,0,15,app
57,economics,0,0,0,1,0,0,0,4,bus
58,enfance - adolescence,0,0,0,21,0,0,0,7,soc
59,english,0,0,0,3,0,0,0,10,let
60,enseignement - éducation,1,1,1,31,0,0,3,25,edu
61,entrepreneuriat et innovation,0,1,0,0,0,0,0,12,bus
62,environment and geography,0,0,0,4,0,0,0,10,app
63,environnement,2,0,0,14,0,0,1,26,app
64,evironment and geography,0,0,0,1,0,0,0,0,app
65,faculté de science politique et de droit,0,0,0,1,0,0,0,2,soc
66,faculté des arts,0,0,0,1,0,0,0,2,art
67,faculté des sciences,0,0,0,1,0,0,0,1,app
68,faculté des sciences de l'éducation,0,0,0,1,0,0,0,1,edu
69,faculté des sciences humaines,0,0,0,0,0,0,0,1,soc
70,famille - couple,0,0,0,10,0,0,0,8,soc
71,femmes - condition féminine,0,0,0,13,1,0,0,0,soc
72,finance,2,0,0,9,5,2,2,42,bus
73,fine arts,0,0,0,7,0,0,0,3,art
74,forêt - foresterie,0,0,0,4,0,0,1,22,app
75,gestion - administration,0,0,0,16,2,1,1,23,bus
76,gestion des opérations et de la logistique,0,0,0,8,0,0,0,15,bus
77,gestion des ressources humaines,1,0,0,3,0,0,0,13,bus
78,génie chimique,0,0,0,3,2,1,1,24,app
79,génie civil,0,0,0,1,1,0,0,8,app
80,génie de la construction,1,0,0,9,8,0,0,21,app
81,génie des systèmes,1,0,0,3,5,1,0,17,app
82,génie industriel,0,0,0,0,0,0,0,2,app
83,génie informatique et génie logiciel,3,0,0,3,0,1,1,31,app
84,génie logiciel et des ti,3,0,0,1,4,2,1,23,app
85,génie mécanique,0,0,0,12,13,5,2,82,app
86,génie physique,0,0,0,3,1,1,0,23,app
87,génie électrique,2,0,0,4,16,5,0,54,app
88,génies civil,0,0,0,4,3,1,3,6,app
89,génétique - génomique,0,0,0,13,1,1,0,31,app
90,géographie,1,0,0,9,0,0,1,27,app
91,géologie,0,0,0,1,0,0,0,7,app
92,géomatique,0,0,0,1,1,0,0,13,app
93,health services,0,0,0,6,0,0,0,0,san
94,histoire,0,0,0,32,0,1,0,57,soc
95,histoire de l'art,1,0,0,18,0,0,0,16,art
96,history and global studies,0,0,0,2,0,0,0,7,soc
97,history and global studies / religion,0,0,0,0,0,0,0,1,soc
98,human resources,0,0,0,2,0,0,0,2,bus
99,humanities,0,0,0,2,0,0,0,0,let
100,immigration - migrations et réfugiés,1,0,0,4,1,0,0,1,soc
101,informatique,4,0,0,5,7,0,4,21,app
102,informatique - génie informatique,2,0,0,5,3,0,0,20,app
103,informatique et d'ingénierie,2,0,0,0,8,0,0,9,app
105,langues et linguistique,0,1,0,11,0,0,0,10,let
106,linguistique,0,0,0,13,0,0,0,7,let
107,littérature,0,0,0,11,0,0,0,13,let
108,management,0,0,0,25,4,1,1,27,bus
109,management et technologie,3,0,1,20,3,1,0,38,bus
110,marketing,2,1,0,20,4,0,1,38,bus
111,mathematics,0,0,0,1,0,0,0,6,pur
112,mathematics & computer science,0,0,0,0,1,0,0,0,app
113,mathematics / environment and geography / williams school of business,0,0,0,0,0,0,0,1,app
114,mathématiques,0,0,1,13,2,1,0,41,pur
115,mathématiques et de génie industriel,4,0,0,10,4,1,2,39,app
116,mathématiques et statistique,0,0,0,1,1,0,0,20,pur
117,mines - métallurgie,0,0,0,1,1,1,1,12,app
118,modern languages,0,0,0,1,0,0,0,1,let
119,modern languages literatures and cultures,0,0,1,0,0,0,0,0,let
120,modern languages literatures and cultures – german studies,0,0,0,3,0,0,0,1,let
121,modern languages literatures and cultures – hispanic studies,0,0,0,3,0,0,0,2,let
122,modern languages literatures and cultures – japanese studies,0,2,0,1,0,2,0,0,let
123,modern languages – esl,0,0,0,2,0,0,0,1,let
124,music,0,1,0,13,0,0,0,11,art
125,music and arts administration,0,0,0,0,0,0,0,1,art
126,musique,0,1,0,12,0,0,1,16,art
127,muséologie,0,0,0,0,0,0,0,2,art
128,médecine : anesthésie,0,0,0,1,0,0,0,3,san
129,médecine : chirurgie,0,0,0,1,0,0,0,2,san
130,médecine : endocrinologie,0,0,0,1,0,0,0,2,san
131,médecine : technologies médicales,0,0,0,3,1,2,0,15,san
132,médecine communautaire et sociale,0,0,0,2,0,0,0,3,san
133,médecine d'urgence,0,0,0,2,0,0,0,3,san
134,médecine dentaire,0,0,0,2,1,0,0,5,san
135,médecine du sport,0,0,0,0,0,0,0,6,san
136,médecine et technologies de l'information,1,0,0,1,0,0,0,3,san
137,médecine familiale,0,0,0,1,0,0,0,1,san
138,médecine nucléaire,0,0,0,0,0,0,0,1,san
139,médecine pédiatrique,0,0,0,3,0,0,0,3,san
140,médias,0,0,0,11,1,0,0,27,soc
141,médicaments,0,0,0,10,1,0,0,14,san
142,natural sciences,0,0,0,0,0,0,0,1,pur
143,océans - ressources aquatiques et pêche,0,0,0,3,0,0,1,10,app
144,optique - photonique et lasers,0,0,0,3,2,2,0,16,pur
145,organisation et ressources humaines,0,0,0,32,0,0,1,17,bus
146,organisations et accords internationaux,0,0,0,2,0,0,2,4,bus
147,pays et régions du monde,0,0,0,10,0,2,0,12,soc
148,philosophie,0,0,0,12,0,0,0,26,let
149,philosophy,0,0,0,1,0,0,0,4,let
150,philosophy / liberal arts,0,0,0,0,0,0,0,1,let
151,philosophy / politics and international studies,0,0,0,0,0,0,0,1,let
152,physics and astronomy,2,0,0,2,2,0,0,12,pur
153,physics and astronomy / williams school of business,0,0,0,0,0,0,0,1,pur
154,physique,0,0,0,0,0,1,0,8,pur
155,politics & international studies,0,0,0,3,0,0,0,5,soc
156,politics & international studies / williams school of business,0,0,0,0,0,0,0,1,soc
157,politics and international studies,0,0,0,0,0,0,0,1,soc
158,politique - science politique,0,0,0,15,0,0,0,35,soc
159,psychologie,1,1,0,70,1,0,2,59,soc
160,psychology,0,0,0,9,0,0,0,8,soc
161,psychology / philosophy,0,0,0,0,0,0,0,1,soc
162,psychoéducation et de psychologie,0,0,0,25,0,0,0,13,soc
163,questions autochtones,0,0,0,3,0,0,0,7,soc
164,relations industrielles,0,0,0,8,2,0,0,7,bus
165,religion,0,0,0,0,0,0,0,3,soc
166,réadaptation,0,0,0,4,0,0,0,9,san
167,sans appartenance départementale,0,0,0,3,1,0,1,7,w
168,santé : administration,0,0,0,7,0,0,0,7,san
169,santé : alcool - drogues et dépendances,0,0,0,3,0,0,0,6,san
170,santé : approches alternatives,0,0,0,1,0,0,0,1,san
171,santé : cancer,0,0,0,8,1,1,0,22,san
172,santé : diabète,0,0,0,6,0,0,0,9,san
173,santé : divers,0,0,0,2,0,0,0,4,san
174,santé : douleur,0,0,0,1,0,0,0,3,san
175,santé : déficience physique,0,0,0,2,0,0,0,1,san
176,santé : environnement,0,0,0,3,0,0,0,4,san
177,santé : foie et rein,0,0,0,0,0,0,0,3,san
178,santé : grossesse et maternité,1,0,0,5,0,0,0,11,san
179,santé : maladies cardiovasculaires,0,0,0,5,1,0,0,26,san
180,santé : maladies dégénératives,0,0,0,4,0,0,0,14,san
181,santé : maladies infectieuses,0,0,0,2,0,0,0,13,san
182,santé : maladies inflammatoires,0,0,0,3,0,0,0,7,san
183,santé : maladies respiratoires,1,0,0,4,0,0,0,14,san
184,santé : obésité,0,0,0,6,0,0,0,14,san
185,santé : oreille,0,0,0,1,0,0,0,1,san
186,santé : os,0,0,0,1,0,0,0,3,san
187,santé : peau,0,0,0,3,0,0,0,2,san
188,santé : sein,0,0,0,1,0,0,0,2,san
189,santé : soins de fin de vie,0,0,0,1,0,0,0,3,san
190,santé : soins infirmiers,0,0,0,3,0,0,0,1,san
191,santé : sommeil,0,0,0,5,0,0,0,3,san
192,santé : système musculosquelettique,0,0,0,4,0,0,0,7,san
193,santé : système reproducteur,0,0,0,2,0,0,0,8,san
194,santé : troubles du langage,0,0,0,4,0,0,0,1,san
195,santé : troubles mentaux,0,0,0,16,0,0,0,12,san
196,santé : yeux,0,0,0,2,0,0,0,5,san
197,santé : éducation,0,0,0,4,0,0,1,4,san
198,school of education,0,2,0,32,1,0,2,14,edu
199,school of education & fine arts,0,0,0,0,0,0,0,1,edu
200,science et technologie,1,0,0,3,2,0,1,6,app
201,science politique,0,0,0,16,0,1,1,28,soc
202,sciences administratives,2,1,3,13,4,0,1,16,bus
203,sciences biologiques,0,0,1,17,3,1,1,29,pur
204,sciences comptables,3,0,2,45,6,0,3,41,bus
205,sciences de l'activité physique,0,0,0,11,0,0,1,17,san
206,sciences de l'administration,6,0,0,14,3,0,0,14,bus
207,sciences de l'éducation,0,0,0,21,0,0,0,9,edu
208,sciences de la décision,2,0,0,7,2,1,0,20,app
209,sciences de la terre et de l'atmosphère,0,1,0,4,2,0,1,23,pur
210,sciences des religions,0,0,0,11,0,0,0,7,soc
211,sciences des religions et théologie,0,0,0,4,0,1,0,7,soc
212,sciences humaines lettres et communications,3,0,0,11,0,0,1,18,soc
213,sciences infirmières,0,0,1,18,1,0,2,4,san
214,sciences juridiques,0,0,0,20,0,0,0,16,dro
215,sciences naturelles,0,0,0,3,0,0,0,10,pur
216,sciences sociales,0,0,0,5,0,0,2,13,soc
217,sciences économiques,0,0,0,7,1,1,0,31,bus
218,service social,0,0,0,11,0,0,0,6,soc
219,sexologie,0,0,0,16,0,0,0,10,soc
220,sexualité,0,0,0,1,0,0,0,3,soc
221,social sciences,0,0,0,1,0,0,0,0,soc
222,sociologie,0,0,0,21,3,0,1,21,soc
223,sociology,0,0,0,8,0,0,0,6,soc
224,société - sociologie,0,0,0,11,0,0,0,15,soc
225,sodexo,0,0,0,1,0,0,0,2,soc
226,sport - activité physique,0,0,0,5,0,0,0,14,san
227,sports medicine,0,0,0,5,0,0,0,2,san
228,sports studies,0,0,0,1,0,0,0,8,san
229,stratégie responsabilité sociale et environnementale,3,0,1,8,3,0,0,13,soc
230,systèmes de gestion et d'aide à la décision,0,0,0,2,0,0,0,3,app
231,technologies de l'information,0,0,0,8,1,1,1,10,app
232,théâtre,0,0,0,2,0,0,0,3,art
233,tourisme,0,0,0,1,0,0,0,2,art
234,transports,0,0,0,0,0,0,0,4,app
235,travail - emploi,0,0,0,18,2,0,2,27,soc
236,travail social,1,0,0,14,0,0,0,4,soc
237,télécommunications,0,0,0,2,0,0,0,3,app
239,vieillesse - personnes âgées,0,0,0,8,0,0,0,9,soc
240,ville de québec,0,0,0,0,0,0,0,3,soc
241,végétaux,0,0,0,8,1,0,1,22,pur
242,williams school of business,0,1,0,13,1,1,1,13,bus
243,williams school of business – dobson-lagassé entrepreneurship centre,0,0,0,0,0,0,0,1,bus
244,école de design,0,0,0,8,0,1,1,22,art
245,école de langues,2,2,0,16,1,0,0,5,let
246,école de travail social,1,0,1,17,0,0,0,9,soc
247,école multidisciplinaire de l'image,0,0,0,4,0,0,0,6,art
248,école supérieure de mode esg uqam,0,1,0,2,0,0,0,1,art
249,école supérieure de théâtre,0,0,0,16,0,0,0,4,art
250,économie,0,0,0,10,1,1,1,34,bus
251,économie appliquée,1,0,0,4,2,1,0,20,bus
252,éducation,0,0,0,8,0,0,0,7,edu
253,éducation et formation spécialisées,0,0,0,38,0,0,0,14,edu
254,éducation et pédagogie,0,0,1,13,1,0,1,12,edu
255,énergie,0,0,0,2,0,0,0,6,app
257,éthique,0,0,0,6,0,0,0,7,soc
258,études françaises et québécoises,0,0,0,4,0,0,1,4,let
259,études langagières,0,0,1,5,0,0,0,0,let
260,études littéraires,0,0,0,20,0,0,1,23,let
261,études urbaines et touristiques,0,2,1,8,2,0,0,21,w
262,évolution,0,0,0,1,0,0,0,0,pur
