university,name,department,role,sex,email,number,expertises,url
HEC Montréal,Natalia Aguilar Delgado,Département d'affaires internationales,Professeure adjointe,femme,natalia.aguilar-delgado@hec.ca,514 340-6714,,https://www.hec.ca/profs/natalia.aguilar-delgado.html
HEC Montréal,Patrick Cohendet,Département d'affaires internationales,Professeur titulaire,homme,patrick.cohendet@hec.ca,514 340-6909,Économie du savoir|Management de la connaissance|Économie et gestion de l'innovation|Théorie de la firme et des organisations|Gestion des transferts de technologie,https://www.hec.ca/profs/patrick.cohendet.html
HEC Montréal,David Doloreux,Département d'affaires internationales,Professeur titulaire,homme,david.doloreux@hec.ca,514 340-6872,,https://www.hec.ca/profs/david.doloreux.html
HEC Montréal,Aurélia Durand,Département d'affaires internationales,Professeure agrégée,femme,aurelia.durand@hec.ca,514-340-1488,"Marketing international, relationnel et industriel|Création, capture et partage de valeur|Relations clients-fournisseurs|Amérique Latine",https://www.hec.ca/profs/aurelia.durand.html
HEC Montréal,Gwyneth Edwards,Département d'affaires internationales,Professeure agrégée,femme,gwyneth.edwards@hec.ca,514 340-6801,Stratégies de gestion internationale|Pratiques stratégiques|Processus stratégiques et trajectoire de l'entreprise|Le transfert de connaissances dans les multinationales,https://www.hec.ca/profs/gwyneth.edwards.html
HEC Montréal,Aude Le Cottier,Département d'affaires internationales,Professeure adjointe,femme,aude.le-cottier@hec.ca,514 340-6824,Gouvernance d’entreprise|Entreprises non-cotées|Actionnariat|Entreprises multinationales,https://www.hec.ca/profs/aude.le-cottier.html
HEC Montréal,François Leroux,Département d'affaires internationales,Professeur titulaire,homme,francois.leroux@hec.ca,514 340-6465,Marchés internationaux des capitaux|Organismes internationaux|Économie appliquée|Échanges internationaux et nouveaux marchés,https://www.hec.ca/profs/francois.leroux.html
HEC Montréal,Pengfei Li,Département d'affaires internationales,Professeur adjoint,homme,li.pengfei@hec.ca,514 340-3177,Innovation|Géographie économique|Réseaux d'affaires locaux et internationaux|Chine,https://www.hec.ca/profs/li.pengfei.html
HEC Montréal,María Morfín-Gutiérrez,Département d'affaires internationales,Maître d'enseignement,impossible à déterminer,maria.morfin-gutierrez@hec.ca,514 340-6315,Commerce international|Entreprises familiales|Gestion de PME|Marketing international|Faire des affaires en Amérique Latine|Entrepreneurship international,https://www.hec.ca/profs/maria.morfin-gutierrez.html
HEC Montréal,David Pastoriza Rivas,Département d'affaires internationales,Professeur agrégé,homme,david.pastoriza-rivas@hec.ca,514 340-3589,Stratégie internationale|Les priorités du directeur général|Le capital social dans l'entreprise multinationale|Les modes d`entrée internationale,https://www.hec.ca/profs/david.pastoriza-rivas.html
HEC Montréal,Jahan Ara Peerally,Département d'affaires internationales,Professeure agrégée,femme,jahan.peerally@hec.ca,514 340-6578,Le développement économique par IDE|Entreprises multinationales|Transfert de technologie|Création de capacité technologique innovante|Économie de l’innovation et Systèmes d'innovation|Pays en développements,https://www.hec.ca/profs/jahan.peerally.html
HEC Montréal,Yves Plourde,Département d'affaires internationales,Professeur adjoint,homme,yves.plourde@hec.ca,514 340-5626,Management Stratégique des FMNs|Cognition et attention organisationnelle|Historiographie et recherche par études de cas|Greenpeace International,https://www.hec.ca/profs/yves.plourde.html
HEC Montréal,Marlei Pozzebon,Département d'affaires internationales,Professeure titulaire,femme,marlei.pozzebon@hec.ca,514 340-6754,"Innovation sociale, inclusion sociale, changement social, créativité citoyenne, dialogue global/local|Nouvelles formes de développement local|Théories de la pratique (structurationistes, constructivistes, critiques)|Méthodes qualitatives de recherche",https://www.hec.ca/profs/marlei.pozzebon.html
HEC Montréal,Belgacem Rahmani,Département d'affaires internationales,Maître d'enseignement,impossible à déterminer,belgacem.rahmani@hec.ca,514 340-6193,Économie internationale|Commerce  international|Développement de marchés,https://www.hec.ca/profs/belgacem.rahmani.html
HEC Montréal,Bernard Sinclair-Desgagné,Département d'affaires internationales,Professeur titulaire,homme,bernard.sinclair-desgagne@hec.ca,514 340-6461,Théorie de la firme|Organisation industrielle et stratégie|Économie de l'environnement|Risque technologique,https://www.hec.ca/profs/bernard.sinclair-desgagne.html
HEC Montréal,Ekaterina Turkina,Département d'affaires internationales,Professeure agrégée,femme,ekaterina.turkina@hec.ca,514 340-7311,Analyse de réseaux|Analyse de complexité économique|Affaires internationales|Relations entreprises- gouvernement|Réseaux transfrontaliers d'entreprises|Grappes industrielles,https://www.hec.ca/profs/ekaterina.turkina.html
HEC Montréal,Ari Van Assche,Département d'affaires internationales,Professeur agrégé,homme,ari.van-assche@hec.ca,514 340-6043,Commerce international|Chaînes de valeur mondiales|Politique de commerce|Grappes industrielles|Économie de la Chine,https://www.hec.ca/profs/ari.van-assche.html
HEC Montréal,Germain Belzile,Département d'économie appliquée,Maître d'enseignement,impossible à déterminer,germain.belzile@hec.ca,514 340-6444,Théorie macroéconomique|Politiques macroéconomiques|Monnaie et banques|Économie internationale,https://www.hec.ca/profs/germain.belzile.html
HEC Montréal,Hafedh Bouakez,Département d'économie appliquée,Professeur titulaire,homme,hafedh.bouakez@hec.ca,514 340-7003,Macroéconomie|Macroéconomie ouverte|Finance internationale,https://www.hec.ca/profs/hafedh.bouakez.html
HEC Montréal,Matteo Cacciatore,Département d'économie appliquée,Professeur agrégé,homme,matteo.cacciatore@hec.ca,514 340-1496,Macroéconomie internationale|Macroéconomie et commerce international,https://www.hec.ca/profs/matteo.cacciatore.html
HEC Montréal,Justin Caron,Département d'économie appliquée,Professeur adjoint,homme,justin.caron@hec.ca,514 340-6293,Économie environmentale et de l'énergie|Commerce international,https://www.hec.ca/profs/justin.caron.html
HEC Montréal,Léon Courville,Département d'économie appliquée,Professeur associé,homme,leon.courville@hec.ca,514-340-1590,,https://www.hec.ca/profs/leon.courville.html
HEC Montréal,Decio  Coviello,Département d'économie appliquée,Professeur agrégé,homme,decio.coviello@hec.ca,514-340-1601,Économie politique et publique|Économie du travail|Politiques d'approvisionnement,https://www.hec.ca/profs/decio.coviello.html
HEC Montréal,Ana Damas De Matos,Département d'économie appliquée,Professeure adjointe,femme,ana.damas-de-matos@hec.ca,514 340-6452,,https://www.hec.ca/profs/ana.damas-de-matos.html
HEC Montréal,Benoit Dostie,Département d'économie appliquée,Professeur titulaire,homme,benoit.dostie@hec.ca,514 340-6453,Économétrie appliquée|Économie du travail,https://www.hec.ca/profs/benoit.dostie.html
HEC Montréal,Nathalie Elgrably,Département d'économie appliquée,Maître d'enseignement,impossible à déterminer,nathalie.elgrably@hec.ca,514 340-6361,Analyse de politiques économiques|Analyse de problèmes économiques contemporains,https://www.hec.ca/profs/nathalie.elgrably.html
HEC Montréal,Robert Gagné,Département d'économie appliquée,Professeur titulaire,homme,robert.gagne@hec.ca,514 340-6255,Microéconomie appliquée|Économétrie|Transports|Organisation industrielle,https://www.hec.ca/profs/robert.gagne.html
HEC Montréal,Bernard Gauthier,Département d'économie appliquée,Professeur titulaire,homme,bernard.gauthier@hec.ca,514 340-6809,Finances publiques|Économie du développement|Analyse de politiques publiques|Économie urbaine et régionale|Prganisations économiques internationales,https://www.hec.ca/profs/bernard.gauthier.html
HEC Montréal,Gautam Gowrisankaran,Département d'économie appliquée,Professeur affilié,homme,gautam.gowrisankaran@hec.ca,514 340-6439,Organisation industrielle|Économie de la santé|Économie de l'environnement|Économétrie appliquée,https://www.hec.ca/profs/gautam.gowrisankaran.html
HEC Montréal,Tibor Heumann,Département d'économie appliquée,Professeur adjoint,homme,tibor.heumann@hec.ca,514 340-6443,,https://www.hec.ca/profs/tibor.heumann.html
HEC Montréal,Guy Lacroix,Département d'économie appliquée,Professeur titulaire,homme,guy.lacroix@hec.ca,514-340-6439,,https://www.hec.ca/profs/guy.lacroix.html
HEC Montréal,Justin Leroux,Département d'économie appliquée,Professeur agrégé,homme,justin.leroux@hec.ca,514 340-6864,Justice distributive|Partage de coûts,https://www.hec.ca/profs/justin.leroux.html
HEC Montréal,Pierre-Carl Michaud,Département d'économie appliquée,Professeur titulaire,homme,pierre-carl.michaud@hec.ca,514 340-6466,Économie de la santé|Économie de l’assurance et de l’épargne|Économétrie appliquée,https://www.hec.ca/profs/pierre-carl.michaud.html
HEC Montréal,Michel Normandin,Département d'économie appliquée,Professeur titulaire,homme,michel.normandin@hec.ca,514 340-6841,Macroéconomie|Finance internationale|Économie financière|Économétrie,https://www.hec.ca/profs/michel.normandin.html
HEC Montréal,Amine Ouazad,Département d'économie appliquée,Professeur agrégé,homme,amine.ouazad@hec.ca,514 340-6436,Microstructure des marchés|Dynamique des villes et du marché immobilier|Crédit immobilier et système bancaire,https://www.hec.ca/profs/amine.ouazad.html
HEC Montréal,Daniel Parent,Département d'économie appliquée,Professeur titulaire,homme,daniel.parent@hec.ca,514 340-7002,Économie du travail,https://www.hec.ca/profs/daniel.parent.html
HEC Montréal,Michel Patry,Département d'économie appliquée,Professeur titulaire,homme,michel.patry@hec.ca,514 340-6300,Économie des organisations|Organisation industrielle|Impartition et gestion de contrats|Régie d'entreprise|Réglementation,https://www.hec.ca/profs/michel.patry.html
HEC Montréal,Federico Ravenna,Département d'économie appliquée,Professeur affilié,homme,federico.ravenna@hec.ca,514 340-6668,Économie monétaire|Macroéconomie|Finance internationale,https://www.hec.ca/profs/federico.ravenna.html
HEC Montréal,Nicolas Sahuguet,Département d'économie appliquée,Professeur titulaire,homme,nicolas.sahuguet@hec.ca,514 340-6031,Organisation industrielle|Théorie des enchères|Économie politique,https://www.hec.ca/profs/nicolas.sahuguet.html
HEC Montréal,Mario Samano,Département d'économie appliquée,Professeur agrégé,homme,mario.samano@hec.ca,514 340-6447,Organisation industrielle|Économie de l'environnement et de l'énergie|Économétrie apliquée,https://www.hec.ca/profs/mario.samano.html
HEC Montréal,Pascal St-Amour,Département d'économie appliquée,Professeur affilié,homme,pascal.st-amour@hec.ca,514 340-6556,,https://www.hec.ca/profs/pascal.st-amour.html
HEC Montréal,Nora Traum,Département d'économie appliquée,Professeure agrégée,femme,nora.traum@hec.ca,514 340-6452,Macroéconomie|Économie monétaire|Politique fiscale,https://www.hec.ca/profs/nora.traum.html
HEC Montréal,Tuba Tunçel,Département d'économie appliquée,Professeure adjointe,femme,tuba.tuncel@hec.ca,514 340-6445,,https://www.hec.ca/profs/tuba.tuncel.html
HEC Montréal,Mireille Vallée,Département d'économie appliquée,Maître d'enseignement,impossible à déterminer,mireille.vallee@hec.ca,514 340-6440,Environnement macroéconomique|Économie du travail,https://www.hec.ca/profs/mireille.vallee.html
HEC Montréal,Nicolas Vincent,Département d'économie appliquée,Professeur agrégé,homme,nicolas.vincent@hec.ca,514 340-6419,Macroéconomie|Économie monétaire|Décisions d'investissement des entreprises|Finance,https://www.hec.ca/profs/nicolas.vincent.html
HEC Montréal,Pierre Balloffet,Département d'entrepreneuriat et innovation,Professeur agrégé,homme,pierre.balloffet@hec.ca,514 340-7821,"Mes intérêts de recherche se rapportent principalement au domaine de la communication marketing et de la marque. signataire d’articles publiés dans les meilleures revues, auteur de livres de référence primés, j’ai également présenté de nombreuses communications lors de congrès internationaux, en conservant toujours un même souci de qualité et d’impact. à titre de professeur associé, je collabore étroitement avec l’équipe de MosaiC et du Pôle Medias sur des questions relatives à la gestion de la créativité d'affaires et des nouveaux médias, lorsque ces questions se trouvent en intersection avec la discipline du marketing. Communicateur reconnu et passionné, je valorise dans mes activités d’écriture, de consultation et d’enseignement, la recherche de perspectives originales, pertinentes et responsables.",https://www.hec.ca/profs/pierre.balloffet.html
HEC Montréal,Franck  Barès,Département d'entrepreneuriat et innovation,Professeur agrégé,homme,franck.bares@hec.ca,514 340-6775,Entrepreneuriat,https://www.hec.ca/profs/franck.bares.html
HEC Montréal,Luis Felipe Cisneros Martinez,Département d'entrepreneuriat et innovation,Professeur agrégé,homme,luis-felipe.cisneros-martinez@hec.ca,514 340-7155,Entreprises familiales|Entrepreneuriat|Gestion de PME|Contradictions et paradoxes,https://www.hec.ca/profs/luis-felipe.cisneros-martinez.html
HEC Montréal,Denis Grégoire,Département d'entrepreneuriat et innovation,Professeur agrégé,homme,denis.gregoire@hec.ca,514 340-6000 poste 1156,Entrepreneuriat|Opportunités|Entrepreneuriat international|Sciences cognitives|Méthodes de recherche,https://www.hec.ca/profs/denis.gregoire.html
HEC Montréal,Jean-François Harvey,Département d'entrepreneuriat et innovation,Professeur adjoint,homme,jean-francois.harvey@hec.ca,514 340-1868,Apprentissage organisationnel|Management de l'innovation|Travail d'équipe et collaboration,https://www.hec.ca/profs/jean-francois.harvey.html
HEC Montréal,Réal Jacob,Département d'entrepreneuriat et innovation,Professeur titulaire,homme,real.jacob@hec.ca,514 340-7024,Gestion stratégique du changement|Transformation des organisations|Entreprise réseau|Organisation apprenante|Gestion des connaissances et communauté de pratique,https://www.hec.ca/profs/real.jacob.html
HEC Montréal,Brian King,Département d'entrepreneuriat et innovation,Professeur agrégé,homme,brian.king@hec.ca,514 340-1574,Sociétés de capital de risque|Financement des compagnies entrepreneuriales|Gestion stratégique en contexte turbulent,https://www.hec.ca/profs/brian.king.html
HEC Montréal,Jorge H. Mejia,Département d'entrepreneuriat et innovation,Professeur agrégé,homme,jorge-h.mejia@hec.ca,514 340-1872,,https://www.hec.ca/profs/jorge-h.mejia.html
HEC Montréal,Fabian Moreno,Département d'entrepreneuriat et innovation,Maître d'enseignement,impossible à déterminer,fabian.moreno@hec.ca,514 340-6000,,https://www.hec.ca/profs/fabian.moreno.html
HEC Montréal,Jean-François Ouellet,Département d'entrepreneuriat et innovation,Professeur agrégé,homme,jean-francois.ouellet@hec.ca,514 340-6932,Marketing entrepreneurial de la start-up et de la petite entreprise|La méthodologie « Lean Startup »|Développement de nouveaux produits|Marketing des innovations et de la technologie|Marketing international et interculturel,https://www.hec.ca/profs/jean-francois.ouellet.html
HEC Montréal,François Rioux,Département d'entrepreneuriat et innovation,Maître d'enseignement,impossible à déterminer,francois.2.rioux@hec.ca,514 340-6371,,https://www.hec.ca/profs/francois.2.rioux.html
HEC Montréal,Laurent Simon,Département d'entrepreneuriat et innovation,Professeur titulaire,homme,laurent.simon@hec.ca,514 340-6029,"Management|Management, nouvelles technologies et économie du savoir|Gestion de projet",https://www.hec.ca/profs/laurent.simon.html
HEC Montréal,Mai Thi Thanh Thai,Département d'entrepreneuriat et innovation,Professeure agrégée,femme,mai-thi-thanh.thai@hec.ca,514 340 1069,Commerce international|Entrepreneurship|Stratégies de gestion,https://www.hec.ca/profs/mai-thi-thanh.thai.html
HEC Montréal,Shady Aboul-Enein,Département de finance,Maître d'enseignement,impossible à déterminer,shady.aboul-enein@hec.ca,514 340-6467,Marchés financiers|Évaluation de titres|Produits dérivés|Gestion des risques|Analyse de la conjoncture économique,https://www.hec.ca/profs/shady.aboul-enein.html
HEC Montréal,Marie-Hélène Allard,Département de finance,Maître d'enseignement,impossible à déterminer,marie-helene.allard@hec.ca,514 340-6670,Finance d'entreprise|Analyse financière|Gestion financière des PME,https://www.hec.ca/profs/marie-helene.allard.html
HEC Montréal,Amir  Barnea,Département de finance,Professeur agrégé,homme,amir.barnea@hec.ca,514-340-7321,,https://www.hec.ca/profs/amir.barnea.html
HEC Montréal,Philippe Bouchard,Département de finance,Maître d'enseignement,impossible à déterminer,philippe.2.bouchard@hec.ca,514 340-7160,Gouvernance d'entreprise|Finance d'entreprise|Analyse financière,https://www.hec.ca/profs/philippe.2.bouchard.html
HEC Montréal,Martin Boyer,Département de finance,Professeur titulaire,homme,martin.boyer@hec.ca,514 340-6704,Assurances|Gestion des risques|Comportement du consommateur face à l'incertitude|Gestion de l'information|Finance d'entreprise,https://www.hec.ca/profs/martin.boyer.html
HEC Montréal,Tolga Cenesizoglu,Département de finance,Professeur agrégé,homme,tolga.cenesizoglu@hec.ca,514 340-5668,Évaluation d'actifs|Économie financière|Économétrie|Prévisions financières|Macro-économie,https://www.hec.ca/profs/tolga.cenesizoglu.html
HEC Montréal,Pierre Chaigneau,Département de finance,Professeur agrégé,homme,pierre.chaigneau@hec.ca,514 340-5661,Finance d'entreprise|Théorie de l'agence|Rémunération des dirigeants|Économie financière,https://www.hec.ca/profs/pierre.chaigneau.html
HEC Montréal,Philippe d'Astous,Département de finance,Professeur adjoint,homme,philippe.dastous@hec.ca,514 340-7120,Finance des ménages|Institutions financières|Économétrie appliquée,https://www.hec.ca/profs/philippe.dastous.html
HEC Montréal,Georges Dionne,Département de finance,Professeur titulaire,homme,georges.dionne@hec.ca,514 340-6596,Gestion des risques|Assurances|Théorie des contrats|Choix de portefeuille|Économétrie appliquée,https://www.hec.ca/profs/georges.dionne.html
HEC Montréal,Christian Dorion,Département de finance,Professeur agrégé,homme,christian.dorion@hec.ca,514 340-1522,Produits dérivés|Modélisation de la volatilité|Risque de crédit|Gestion du risque|Économétrie financière,https://www.hec.ca/profs/christian.dorion.html
HEC Montréal,Alain Elkaim,Département de finance,Maître d'enseignement,impossible à déterminer,alain.elkaim@hec.ca,514 340-6601,,https://www.hec.ca/profs/alain.elkaim.html
HEC Montréal,Mathieu Fournier,Département de finance,Professeur adjoint,homme,mathieu.fournier@hec.ca,514 340-7192,Évaluation théorique et empirique du prix des actifs|Frictions financieres|Modélisation dynamique de la dependence et de la volatilité des actifs financiers|Prédictibilité des rendements sur actions et strategies d'investissement|Évaluation des produits  dérivés et gestion des risques,https://www.hec.ca/profs/mathieu.fournier.html
HEC Montréal,Pascal François,Département de finance,Professeur titulaire,homme,pascal.francois@hec.ca,514 340-7743,Finance d'entreprise|Risque de crédit|Évaluation de la dette,https://www.hec.ca/profs/pascal.francois.html
HEC Montréal,Gunnar Grass,Département de finance,Professeur agrégé,homme,gunnar.grass@hec.ca,514 340-1540,,https://www.hec.ca/profs/gunnar.grass.html
HEC Montréal,Vincent Grégoire,Département de finance,Professeur adjoint,homme,vincent.3.gregoire@hec.ca,514 340-6595,,https://www.hec.ca/profs/vincent.3.gregoire.html
HEC Montréal,Alexandre Jeanneret,Département de finance,Professeur agrégé,homme,alexandre.jeanneret@hec.ca,514 340-1557,Macro finance|Evaluation d’actifs financiers|Risque de crédit et finance d'entreprise|Taux de change,https://www.hec.ca/profs/alexandre.jeanneret.html
HEC Montréal,Simon Lalancette,Département de finance,Professeur titulaire,homme,simon.lalancette@hec.ca,514 340-6590,Marchés des capitaux|Instruments dérivés sur taux d'intérêt|Gestion de risque|Économétrie financière,https://www.hec.ca/profs/simon.lalancette.html
HEC Montréal,Jacques Lemay,Département de finance,Professeur invité,homme,jacques.lemay@hec.ca,514 340-7043,Banque d'investissement et courtage de valeurs mobilières|Opérations de financement et de fusion et acquisition dans le marché des capitaux|Conduite des affaires dans le commerce des valeurs mobilières|Aspects réglementaires et normatifs des marchés financiers|Stratégie financière de l'entreprise,https://www.hec.ca/profs/jacques.lemay.html
HEC Montréal,Iwan Meier,Département de finance,Professeur titulaire,homme,iwan.meier@hec.ca,514 340-3198,Finance empirique|Mesure de la performance|Gestion des fonds communs de placement et des fonds de couverture|Décisions d'investissement des entreprises,https://www.hec.ca/profs/iwan.meier.html
HEC Montréal,Piotr Orłowski,Département de finance,Professeur adjoint,homme,piotr.orlowski@hec.ca,514 340-3828,,https://www.hec.ca/profs/piotr.orlowski.html
HEC Montréal,Nicolas A. Papageorgiou,Département de finance,Professeur titulaire,homme,nicolas.papageorgiou@hec.ca,514 340-7309,Titres à revenus fixes|Modélisation du risque de crédit|Analyse de performance des fonds d'investissement alternatifs,https://www.hec.ca/profs/nicolas.papageorgiou.html
HEC Montréal,Jean Roy,Département de finance,Professeur titulaire,homme,jean.roy@hec.ca,514 340-6607,Gestion des institutions financières|Systèmes financiers|Analyse financière|Intelligence artificielle en finance,https://www.hec.ca/profs/jean.roy.html
HEC Montréal,Pierre Saint-Laurent,Département de finance,Maître d'enseignement,impossible à déterminer,pierre.saint-laurent@hec.ca,514 340-1353,,https://www.hec.ca/profs/pierre.saint-laurent.html
HEC Montréal,Lorraine Sauriol,Département de finance,Maître d'enseignement,impossible à déterminer,lorraine.sauriol@hec.ca,514 340-6581,,https://www.hec.ca/profs/lorraine.sauriol.html
HEC Montréal,Jean-Guy Simonato,Département de finance,Professeur titulaire,homme,jean-guy.simonato@hec.ca,514 340-6807,Titres à revenus fixes|Produits dérivés|Économétrie appliquée aux problèmes financiers,https://www.hec.ca/profs/jean-guy.simonato.html
HEC Montréal,Valeri Sokolovski,Département de finance,Professeur adjoint,homme,valeri.sokolovski@hec.ca,514 340-5661,,https://www.hec.ca/profs/valeri.sokolovski.html
HEC Montréal,Jean-Philippe Tarte,Département de finance,Maître d'enseignement,impossible à déterminer,jean-philippe.2.tarte@hec.ca,514 340-6999,Placement et gestion de portefeuille|Analyse financière|Financement par capital de risque,https://www.hec.ca/profs/jean-philippe.2.tarte.html
HEC Montréal,Pascale Valery,Département de finance,Professeure agrégée,femme,pascale.valery@hec.ca,514 340-7004,Économétrie de la finance,https://www.hec.ca/profs/pascale.valery.html
HEC Montréal,Simon van Norden,Département de finance,Professeur titulaire,homme,simon.van-norden@hec.ca,514 340-6781,Finance internationale|Séries chronologiques|Économie monétaire,https://www.hec.ca/profs/simon.van-norden.html
HEC Montréal,Yossiri Adulyasak,Département de gestion des opérations et de la logistique,Professeur adjoint,homme,yossiri.adulyasak@hec.ca,514 340-7029,Analytique de la chaîne d'approvisionnement|Optimisation sous incertitude|Optimisation à grande échelle,https://www.hec.ca/profs/yossiri.adulyasak.html
HEC Montréal,Valérie Bélanger,Département de gestion des opérations et de la logistique,Professeure adjointe,femme,valerie.3.belanger@hec.ca,514 340-1588,Logistique hospitalière|Gestion des services d’urgence|Transport|Recherche opérationnelle|Amélioration des processus,https://www.hec.ca/profs/valerie.3.belanger.html
HEC Montréal,Denis Cauchon,Département de gestion des opérations et de la logistique,Maître d'enseignement,impossible à déterminer,denis.cauchon@hec.ca,514 340-6021,Gestion de la production|Liens interfonctionnels|Éthique et gestion environnementales,https://www.hec.ca/profs/denis.cauchon.html
HEC Montréal,Remi Charpin,Département de gestion des opérations et de la logistique,Professeur adjoint,homme,remi.charpin@hec.ca,514 340-6066,Gestion des Opérations Internationale|Risques Politiques en Gestion de la Chaîne d’Approvisionnement,https://www.hec.ca/profs/remi.charpin.html
HEC Montréal,Michel Cloutier,Département de gestion des opérations et de la logistique,Professeur invité,homme,michel.cloutier@hec.ca,514 340-6684,Logistique|Gestion des stocks|Prévision de la demande|Systèmes ERP - SAP|Planification et contrôle de la production|Gestion des systèmes d'entreposage |Simulation et systèmes d'aide à la décision,https://www.hec.ca/profs/michel.cloutier.html
HEC Montréal,Jean-François Cordeau,Département de gestion des opérations et de la logistique,Professeur titulaire,homme,jean-francois.cordeau@hec.ca,514 340-6278,Logistique|Transport|Optimisation combinatoire|Décomposition mathématique,https://www.hec.ca/profs/jean-francois.cordeau.html
HEC Montréal,Martin Cousineau,Département de gestion des opérations et de la logistique,Professeur adjoint,homme,martin.cousineau@hec.ca,514 340-6737,Transformation des données en connaissances|Intelligence artificielle|Recherche opérationnelle|Domaine de la santé,https://www.hec.ca/profs/martin.cousineau.html
HEC Montréal,Yves Devin,Département de gestion des opérations et de la logistique,Professeur associé,homme,yves.devin@hec.ca,514 340-6716,,https://www.hec.ca/profs/yves.devin.html
HEC Montréal,Raf Jans,Département de gestion des opérations et de la logistique,Professeur titulaire,homme,raf.jans@hec.ca,514-340-7256,Gestion des opérations|Planification de la production|Application de la recherche opérationnelle|Programmation en nombres entiers|Optimisation combinatoire,https://www.hec.ca/profs/raf.jans.html
HEC Montréal,Marie-Hélène Jobin,Département de gestion des opérations et de la logistique,Professeure titulaire,femme,marie-helene.jobin@hec.ca,514 340-6283,Gestion par résultats et management de la valeur|Mesure de performance et formulation d'indicateurs|Maximisation de la valeur|Gestion et amélioration des processus|Logistique et entreprises-réseaux,https://www.hec.ca/profs/marie-helene.jobin.html
HEC Montréal,Sylvain Landry,Département de gestion des opérations et de la logistique,Professeur titulaire,homme,sylvain.landry@hec.ca,514 340-6749,Lean santé et services sociaux|Logistique hospitalière|Gestion intégrée de la chaîne d'approvisionnement (Supply Chain Management),https://www.hec.ca/profs/sylvain.landry.html
HEC Montréal,Olivier Lourdel,Département de gestion des opérations et de la logistique,Maître d'enseignement,impossible à déterminer,olivier.lourdel@hec.ca,514 340-3685,,https://www.hec.ca/profs/olivier.lourdel.html
HEC Montréal,Jorge Mendoza Gimenez,Département de gestion des opérations et de la logistique,Professeur visiteur,homme,jorge.mendoza@hec.ca,514 340-5659,Recherche Opérationnelle|Problèmes de tournées de véhicules|Problèmes d'ordonnancement|Conception de meta et matheuristiques|Approches par décomposition,https://www.hec.ca/profs/jorge.mendoza.html
HEC Montréal,Jean Nollet,Département de gestion des opérations et de la logistique,Professeur titulaire,homme,jean.nollet@hec.ca,514 340-6279,Impartition|Gestion des approvisionnements|Gestion des entreprises de services|Stratégie d'opération|Développement de l'intuition,https://www.hec.ca/profs/jean.nollet.html
HEC Montréal,Julie Paquette,Département de gestion des opérations et de la logistique,Professeure agrégée,femme,julie.paquette@hec.ca,514 340-6745,Gestion des opérations dans les entreprises de services|Transport|Logistique du commerce électronique,https://www.hec.ca/profs/julie.paquette.html
HEC Montréal,Federico Pasin,Département de gestion des opérations et de la logistique,Professeur titulaire,homme,federico.pasin@hec.ca,514 340-6305,Qualité totale|Amélioration des systèmes opérationnels|Flexibilité|Gestion des processus,https://www.hec.ca/profs/federico.pasin.html
HEC Montréal,Véronique Poirier,Département de gestion des opérations et de la logistique,Maître d'enseignement,impossible à déterminer,veronique.poirier@hec.ca,514 340-6743,Gestion des opérations|Gestion des stocks et entreposage|Gestion de réseaux de distribution|Logistique,https://www.hec.ca/profs/veronique.poirier.html
HEC Montréal,Claire Poitras,Département de gestion des opérations et de la logistique,Maître d'enseignement,impossible à déterminer,claire.poitras@hec.ca,514 340-1328,,https://www.hec.ca/profs/claire.poitras.html
HEC Montréal,Silvia I. Ponce,Département de gestion des opérations et de la logistique,Professeure agrégée,femme,silvia.ponce@hec.ca,514 340-6393,Gestion des opérations et de la production|Approvisionnement de services à base de connaissances|Qualité totale et amélioration continue|Technologie et gestion du processus d'innovation technologique|Stratégie d'opération,https://www.hec.ca/profs/silvia.ponce.html
HEC Montréal,Marie-Ève Rancourt,Département de gestion des opérations et de la logistique,Professeure agrégée,femme,marie-eve.rancourt@hec.ca,514 340-1965,Logistique humanitaire|Recherche opérationnelle|Modélisation et optimisation de réseaux de transport|Gestion de la chaine logistique|Gestion des opérations,https://www.hec.ca/profs/marie-eve.rancourt.html
HEC Montréal,Claudia Rebolledo,Département de gestion des opérations et de la logistique,Professeure agrégée,femme,claudia.rebolledo@hec.ca,514 340-6928,Relations interentreprises dans la chaîne logistique et les canaux de distribution |Approvisionnement|Utilisation des TI dans la chaîne logistique|Industrie aéronautique,https://www.hec.ca/profs/claudia.rebolledo.html
HEC Montréal,Jacques Roy,Département de gestion des opérations et de la logistique,Professeur titulaire,homme,jacques.roy@hec.ca,514 340-6282,Gestion du transport|Gestion de la chaîne logistique|Optimisation de réseaux de transport|Amélioration des processus|Gestion des opérations,https://www.hec.ca/profs/jacques.roy.html
HEC Montréal,André Tchokogué,Département de gestion des opérations et de la logistique,Professeur agrégé,homme,andre.tchokogue@hec.ca,514 340-6676,,https://www.hec.ca/profs/andre.tchokogue.html
HEC Montréal,Richard Blain,Département de gestion des ressources humaines,Maître d'enseignement,impossible à déterminer,richard.blain@hec.ca,514 340-6195,,https://www.hec.ca/profs/richard.blain.html
HEC Montréal,Anne Bourhis,Département de gestion des ressources humaines,Professeure titulaire,femme,anne.bourhis@hec.ca,514 340-6873,Travail précaire|Télétravail|Travail temporaire|Recrutement et sélection,https://www.hec.ca/profs/anne.bourhis.html
HEC Montréal,Dominique Bouteiller,Département de gestion des ressources humaines,Professeur agrégé,homme,dominique.bouteiller@hec.ca,514 340-6895,Formation et autoformation|Gestion prévisionnelle des emplois et des compétences|Transformation du rôle des cadres et de la supervision|Gestion participative et travail en équipe|Organisation qualifiante,https://www.hec.ca/profs/dominique.bouteiller.html
HEC Montréal,Santiago Campero,Département de gestion des ressources humaines,Professeur adjoint,homme,santiago.campero@hec.ca,514 340-6532,Sociologie économique |Marchés du travail|Entrepreneuriat|Statut et réputation|Réseaux sociaux,https://www.hec.ca/profs/santiago.campero.html
HEC Montréal,Denis Chênevert,Département de gestion des ressources humaines,Professeur titulaire,homme,denis.chenevert@hec.ca,514 340-6625,Rémunération|Mobilisation des ressources humaines|Pratiques de GRH et santé au travail,https://www.hec.ca/profs/denis.chenevert.html
HEC Montréal,Urwana Coiquaud,Département de gestion des ressources humaines,Professeure agrégée,femme,urwana.coiquaud@hec.ca,514 340-7017,Droit du travail|Droit du travail comparé|Droit international du travail,https://www.hec.ca/profs/urwana.coiquaud.html
HEC Montréal,Michel Cossette,Département de gestion des ressources humaines,Professeur agrégé,homme,michel.cossette@hec.ca,514 340-7038,Travail émotionnel|Rétention du personnel|Performance de service|Santé psychologique et attitudes au travail,https://www.hec.ca/profs/michel.cossette.html
HEC Montréal,Olivier Doucet,Département de gestion des ressources humaines,Professeur agrégé,homme,olivier.doucet@hec.ca,514 340-6717,Leadership|Organisation du travail|Habilitation (empowerment)|Mobilisation des ressources humaines,https://www.hec.ca/profs/olivier.doucet.html
HEC Montréal,Patrick Dubé,Département de gestion des ressources humaines,Maître d'enseignement,impossible à déterminer,patrick.2.dube@hec.ca,514 340-6000,,https://www.hec.ca/profs/patrick.2.dube.html
HEC Montréal,Alain Gosselin,Département de gestion des ressources humaines,Professeur titulaire,homme,alain.gosselin@hec.ca,514 340-6353,Gestion stratégique des ressources humaines|Gestion et évaluation de la performance|Gestion des employés en contact avec les clients|Autoformation en milieu de travail|Développement du rôle de coach chez les superviseurs,https://www.hec.ca/profs/alain.gosselin.html
HEC Montréal,Marc-Antonin Hennebert,Département de gestion des ressources humaines,Professeur agrégé,homme,marc-antonin.hennebert@hec.ca,514 340-7133,Relations de travail|Syndicalisme|Négociation collective|Firmes multinationales et responsabilité sociale|Transformation des milieux de travail,https://www.hec.ca/profs/marc-antonin.hennebert.html
HEC Montréal,Kevin  Hill,Département de gestion des ressources humaines,Professeur agrégé,homme,kevin.hill@hec.ca,514 340-6889,Négociation et collaboration|Gestion de conflits,https://www.hec.ca/profs/kevin.hill.html
HEC Montréal,Mouna Knani,Département de gestion des ressources humaines,Professeure adjointe,femme,mouna.knani@hec.ca,514 340-6575,,https://www.hec.ca/profs/mouna.knani.html
HEC Montréal,Christian Lévesque,Département de gestion des ressources humaines,Professeur titulaire,homme,christian.levesque@hec.ca,514 340-6372,Relations de travail|Gestion des conflits|Syndicalisme|Étude comparative dans le domaine des relations industrielles|Politiques publiques dans le domaine des relations industrielles,https://www.hec.ca/profs/christian.levesque.html
HEC Montréal,Lucie Morissette,Département de gestion des ressources humaines,Professeure agrégée,femme,lucie.morissette@hec.ca,514 340-7109,Relations de travail|Politiques publiques en relations industrielles|Études comparatives en relations industrielles,https://www.hec.ca/profs/lucie.morissette.html
HEC Montréal,Jean Poitras,Département de gestion des ressources humaines,Professeur titulaire,homme,jean.poitras@hec.ca,514 340-3596,Gestion des conflits|Négociation|Médiation,https://www.hec.ca/profs/jean.poitras.html
HEC Montréal,Michel Tremblay,Département de gestion des ressources humaines,Professeur titulaire,homme,michel.tremblay@hec.ca,514 340-6349,Rémunération|Carrière|Pratiques innovatrices en GRH|Mobilisation du personnel,https://www.hec.ca/profs/michel.tremblay.html
HEC Montréal,Yves-Marie Abraham,Département de management,Professeur agrégé,homme,yves-marie.abraham@hec.ca,514 340-6104,Théories des organisations|Sociologie et anthropologie de l'économie|Décroissance soutenable,https://www.hec.ca/profs/yves-marie.abraham.html
HEC Montréal,Marine Agogué,Département de management,Professeure adjointe,femme,marine.agogue@hec.ca,514 340-6000,Management|Management de l'innovation|Processus cognitifs créatifs|Management de la conception,https://www.hec.ca/profs/marine.agogue.html
HEC Montréal,Alireza Ahmadsimab,Département de management,Professeur adjoint,homme,alireza.ahmadsimab@hec.ca,514 340-6015,,https://www.hec.ca/profs/alireza.ahmadsimab.html
HEC Montréal,Omar Aktouf,Département de management,Professeur titulaire,homme,omar.aktouf@hec.ca,514 340-6348,Management comparé (international et interculturel)|Management par projet|Nouveaux modèles en management|Économie et management|Sciences de la vie et management,https://www.hec.ca/profs/omar.aktouf.html
HEC Montréal,Claude Ananou,Département de management,Maître d'enseignement,impossible à déterminer,claude.ananou@hec.ca,514 340-6312,Approche SynOpp|Entrepreneuriat|Management des PME|Entreprises familiales|Droit des affaires|Coordonnateur du cours Notions juridiques du monde des affaires au BAA,https://www.hec.ca/profs/claude.ananou.html
HEC Montréal,Sébastien Arcand,Département de management,Professeur agrégé,homme,sebastien.arcand@hec.ca,514 340-7770,"Changement et structures organisationnelles comparées|État, entreprises et rapports sociaux ethniques|Management interculturel",https://www.hec.ca/profs/sebastien.arcand.html
HEC Montréal,Caroline Aubé,Département de management,Professeure titulaire,femme,caroline.aube@hec.ca,514 340-6943,"Gestion et efficacité des équipes de travail|Comportements contre-productifs au travail|Comportement organisationnel positif (ex.: flow, capital psychologique)",https://www.hec.ca/profs/caroline.aube.html
HEC Montréal,Céline Bareil,Département de management,Professeure titulaire,femme,celine.bareil@hec.ca,514 340-5686,Transformation des organisations|Développement organisationnel|Innovation et changement technologique|Psychologie du travail,https://www.hec.ca/profs/celine.bareil.html
HEC Montréal,Luciano Barin Cruz,Département de management,Professeur agrégé,homme,luciano.barin-cruz@hec.ca,514 340-1350,Responsabilité Sociale des Entreprises|Développement Durable|Innovation sociale|Impact social,https://www.hec.ca/profs/luciano.barin-cruz.html
HEC Montréal,Claude Beaudoin,Département de management,Professeur associé,homme,claude.beaudoin@hec.ca,514 340-5667,Gestion|Industries culturelles et médias|Entrepreneurship|Leadership|Marketing,https://www.hec.ca/profs/claude.beaudoin.html
HEC Montréal,Carol Bélanger,Département de management,Maître d'enseignement,impossible à déterminer,carol.belanger@hec.ca,514 340-5014,Négociations d'affaires|Relève familiale|Psychologie industrielle,https://www.hec.ca/profs/carol.belanger.html
HEC Montréal,Luc Bélanger-Martin,Département de management,Maître d'enseignement,impossible à déterminer,luc.belanger-martin@hec.ca,514 340-6347,Management stratégique|Gestion du changement|Coordonnateur du cours de management des PME|Responsable de la spécialisation entrepreneuriat,https://www.hec.ca/profs/luc.belanger-martin.html
HEC Montréal,Marie-Ann Betschinger,Département de management,Professeure visiteuse,femme,marie-ann.betschinger@hec.ca,514 340-6567,,https://www.hec.ca/profs/marie-ann.betschinger.html
HEC Montréal,Jacques Bougie,Département de management,Professeur associé,homme,jacques.bougie@hec.ca,n/d,,https://www.hec.ca/profs/jacques.bougie.html
HEC Montréal,Alaric Bourgoin,Département de management,Professeur adjoint,homme,alaric.bourgoin@hec.ca,514 340-6000,Conseil en management|Firmes de services professionnels|Transformations complexes|Dialogue stratégique,https://www.hec.ca/profs/alaric.bourgoin.html
HEC Montréal,Eric Brunelle,Département de management,Professeur agrégé,homme,eric.brunelle@hec.ca,514 340-7316,Leadership et habiletés de direction |E-Leadership et direction de personnes à distance |Management du sport,https://www.hec.ca/profs/eric.brunelle.html
HEC Montréal,Maude Brunet,Département de management,Professeure adjointe,femme,maude.brunet@hec.ca,514 340-5624,Gestion de projet|Gouvernance de projets|Projets publics et d'infrastructure|Projets majeurs et mégaprojets|Méthodes qualitatives,https://www.hec.ca/profs/maude.brunet.html
HEC Montréal,Jean-François Chanlat,Département de management,Professeur affilié,homme,jean-francois.chanlat@hec.ca,n/d,Sociologie des organisations|Comportement humain|Modes de gestion et santé au travail|Théorie des organisations|Communication interculturelle,https://www.hec.ca/profs/jean-francois.chanlat.html
HEC Montréal,Charlotte Cloutier,Département de management,Professeure agrégée,femme,charlotte.cloutier@hec.ca,514 340-1322,Stratégie et société|Stratégie non marchande|Stratégie responsable et développement durable|Autorégulation volontaire des entreprises|Gestion stratégique en contexte pluraliste|Méthodes qualitatives,https://www.hec.ca/profs/charlotte.cloutier.html
HEC Montréal,Pénélope Codello,Département de management,Professeure agrégée,femme,penelope.codello@hec.ca,514 340-5682,"Deux axes interreliés : |Transformations sociales et organisationnelles dans le champ de l'innovation sociale|Transformations individuelles : développement des soft skills, du leadership et coaching gestalt| |Un axe transversal en pédagogie du management : Apprentissage transformationnel - Transformational learning| |Des méthodes de recherche qualitatives : ethnographiques, récits de vie, recherche-intervention",https://www.hec.ca/profs/penelope.codello.html
HEC Montréal,Karine Deshayes,Département de management,Maître d'enseignement,impossible à déterminer,karine.deshayes@hec.ca,514 340-6000,,https://www.hec.ca/profs/karine.deshayes.html
HEC Montréal,Jean-Pierre Dupuis,Département de management,Professeur titulaire,homme,jean-pierre.dupuis@hec.ca,514 340-6355,Gérer les entreprises multiculturelles|Intégration des Français dans les entreprises québécoises|Management interculturel|Anthropologie/sociologie des organisations,https://www.hec.ca/profs/jean-pierre.dupuis.html
HEC Montréal,Shereef Elshafei,Département de management,Maître d'enseignement,impossible à déterminer,shereef.elshafei@hec.ca,514 340-7325,,https://www.hec.ca/profs/shereef.elshafei.html
HEC Montréal,Joseph Facal,Département de management,Professeur titulaire,homme,joseph.facal@hec.ca,514 340-6319,Analyse des politiques publiques|Sociologie des organisations|Entreprise et état|Modèle québécois de développement,https://www.hec.ca/profs/joseph.facal.html
HEC Montréal,Russell Fralich,Département de management,Professeur invité,homme,russell.fralich@hec.ca,514 340-7107,Management stratégique|Capital social et prise de décision stratégique|Approches quantitatives en recherche en stratégie,https://www.hec.ca/profs/russell.fralich.html
HEC Montréal,Djahanchah Philip (Sacha) Ghadiri,Département de management,Professeur agrégé,homme,philip-djahanchah.ghadiri@hec.ca,514 340-7016,Management|Identité|Théories du discours organisationnel|Méthodes de recherche qualitatives|Conseil en management,https://www.hec.ca/profs/philip-djahanchah.ghadiri.html
HEC Montréal,Taïeb Hafsi,Département de management,Professeur titulaire,homme,taieb.2.hafsi@hec.ca,514 340-6341,Stratégie d'entreprise|Gestion des organisations complexes|Gestion des entreprises d'état et désinvestissement par l'état|Organisation et changement|Corporation et gouvernance,https://www.hec.ca/profs/taieb.2.hafsi.html
HEC Montréal,Louis Hébert,Département de management,Professeur titulaire,homme,louis.hebert@hec.ca,514 340-6334,,https://www.hec.ca/profs/louis.hebert.html
HEC Montréal,Miguel Hernandez,Département de management,Maître d'enseignement,impossible à déterminer,miguel.hernandez@hec.ca,514 340-6574,,https://www.hec.ca/profs/miguel.hernandez.html
HEC Montréal,Kevin J. Johnson,Département de management,Professeur agrégé,homme,kevin.johnson@hec.ca,514 340-7181,Transformation Organisationnelle|Gestion du Changement|Psychologie Organisationnelle,https://www.hec.ca/profs/kevin.johnson.html
HEC Montréal,Allain Joly,Département de management,Professeur agrégé,homme,allain.joly@hec.ca,514 340-6357,International|Gestion comparée|Gestion alternative|Amérique latine (Brésil)|Stratégie d'entreprise,https://www.hec.ca/profs/allain.joly.html
HEC Montréal,Anna Kim,Département de management,Professeure adjointe,femme,anna.kim@hec.ca,514 340-6403,"Responsabilité sociale des entreprises|Développement durable|Temps, espace et échelle|Commerce équitable|Méthodes qualitatives, ethnographiques et visuelles",https://www.hec.ca/profs/anna.kim.html
HEC Montréal,Pierre Lainey,Département de management,Maître d'enseignement,impossible à déterminer,pierre.lainey@hec.ca,514 340-6425,Leadership|Comportement organisationnel|Gestion du changement|Comportements politiques dans les organisations|Psychologie de la décision,https://www.hec.ca/profs/pierre.lainey.html
HEC Montréal,Ann Langley,Département de management,Professeure titulaire,femme,ann.langley@hec.ca,514 340-7748,Stratégie|Gestion des services de santé|Méthodes de recherche,https://www.hec.ca/profs/ann.langley.html
HEC Montréal,Isabelle Le Breton-Miller,Département de management,Professeure titulaire,femme,isabelle.lebreton@hec.ca,514 340-7315,Entreprise familiale|Management|Stratégie d'entreprise,https://www.hec.ca/profs/isabelle.lebreton.html
HEC Montréal,Catherine Lebrun,Département de management,Professeure adjointe,femme,catherine.lebrun@hec.ca,514 340-5015,"Théorie des organisations et épistémologie en gestion|Management|Nouvelles technologies, nouvelle économie, société de l'information et management|Virtualité organisationnelle et pratiques de gestion électroniques|Modernité et gestion",https://www.hec.ca/profs/catherine.lebrun.html
HEC Montréal,Nicolas Le Dévédec,Département de management,Professeur adjoint,homme,nicolas.le-devedec@hec.ca,514 340-1690,"Enjeux sociaux et politiques liés aux nouvelles technologies|Humain augmenté et transhumanisme|Biopouvoir, technosciences et biomédicalisation|Néolibéralisme et société de performance|Sociologie et théorie critique|Histoire des idées et de la pensée sociale et politique",https://www.hec.ca/profs/nicolas.le-devedec.html
HEC Montréal,Chantale Mailhot,Département de management,Professeure titulaire,femme,chantale.mailhot@hec.ca,514 340-6336,Management|Habiletés de direction|Management et innovation,https://www.hec.ca/profs/chantale.mailhot.html
HEC Montréal,Anne Mesny,Département de management,Professeure titulaire,femme,anne.mesny@hec.ca,514 340-7152,Pédagogie en gestion|Utilisation/valorisation des savoirs académiques|Apprentissage du métier de gestionnaire|Éthique de la recherche|Sociologie des organisations,https://www.hec.ca/profs/anne.mesny.html
HEC Montréal,Estelle M. Morin,Département de management,Professeure titulaire,femme,estelle.morin@hec.ca,514 340-6376,Organisation du travail et sens du travail (approche existentialiste et humaniste)|Santé mentale au travail|Efficacité organisationnelle et indicateurs de performance|Intelligence émotionnelle au travail,https://www.hec.ca/profs/estelle.morin.html
HEC Montréal,Bertin Nadeau,Département de management,Professeur associé,homme,bertin.nadeau@hec.ca,514 340-6977,,https://www.hec.ca/profs/bertin.nadeau.html
HEC Montréal,David Oliver,Département de management,Professeur affilié,homme,david.oliver@hec.ca,514 340-6017,Stratégie d'entreprise|Identité organisationnelle|Prise de décision et émergence dans des environnements complexes|Théorie organisationnelle|Équipes,https://www.hec.ca/profs/david.oliver.html
HEC Montréal,Gérard Ouimet,Département de management,Professeur titulaire,homme,gerard.ouimet@hec.ca,514 340-6346,"Psychopathologie organisationnelle (personnalités difficiles et milieux pathogènes)|Psychologie du pouvoir (habiletés politiques)|Psychologie des criminels en col blanc|Psychologie comparée des sociopathes et des psychopathes organisationnels|Types pathologiques de leadership (narcissique, machiavélique et sadique)|Psychologie positive des organisations (stress, changement, résilience, bonheur)",https://www.hec.ca/profs/gerard.ouimet.html
HEC Montréal,Thierry C. Pauchant,Département de management,Professeur titulaire,homme,thierry.pauchant@hec.ca,514 340-6375,"Gestion éthique des risques et des crises|Responsabilités financières, sociales et écologiques des gestionnaires|Apprentissage et transformation des systèmes complexes|Prise de décision et leadership intégral|Développement du niveau de conscience au travail",https://www.hec.ca/profs/thierry.pauchant.html
HEC Montréal,Anne Pezet,Département de management,Professeure titulaire,femme,anne.pezet@hec.ca,514-340-6000,,https://www.hec.ca/profs/anne.pezet.html
HEC Montréal,Serge Poisson-de Haro,Département de management,Professeur agrégé,homme,serge.poisson-de-haro@hec.ca,514 340-6377,Stratégie|Capacités dynamiques|Organisations et environnement naturel|Gestion des organisations artistiques,https://www.hec.ca/profs/serge.poisson-de-haro.html
HEC Montréal,Viana Poulin,Département de management,Professeure invitée,femme,viana.poulin@hec.ca,514 340-7172,,https://www.hec.ca/profs/viana.poulin.html
HEC Montréal,Emmanuel B. Raufflet,Département de management,Professeur titulaire,homme,emmanuel.raufflet@hec.ca,514 340-6196,Management|Organisations et environnement naturel|Dimensions sociales de la gestion des ressources naturelles,https://www.hec.ca/profs/emmanuel.raufflet.html
HEC Montréal,Wendy Reid,Département de management,Professeure agrégée,femme,wendellyn.reid@hec.ca,514 340-7157,Domaine des arts|Organisations à but non-lucratif|Leadership et gouvernance|Philanthropie dans les arts,https://www.hec.ca/profs/wendellyn.reid.html
HEC Montréal,Mélanie Robinson,Département de management,Professeure adjointe,femme,melanie.2.robinson@hec.ca,514 340-6977,Comportement organisationnel|Leadership|Followership|Relations superviseur-supervisé,https://www.hec.ca/profs/melanie.2.robinson.html
HEC Montréal,Linda Rouleau,Département de management,Professeure titulaire,femme,linda.rouleau@hec.ca,514 340-5669,Stratégie et pratiques sociales|Théories des organisations|Récits de pratiques|Gestionnaires intermédiaires|Restructuration d'entreprises|Contexte pluralistes et en défaillance continue,https://www.hec.ca/profs/linda.rouleau.html
HEC Montréal,Cyrille Sardais,Département de management,Professeur agrégé,homme,cyrille.sardais@hec.ca,514 340-6598,Leadership|Histoire des entreprises|Décision|Management,https://www.hec.ca/profs/cyrille.sardais.html
HEC Montréal,Pierre Simard,Département de management,Maître d'enseignement,impossible à déterminer,pierre.simard@hec.ca,514 340-6913,Management|Stratégie d'entreprise|Entreprenariat,https://www.hec.ca/profs/pierre.simard.html
HEC Montréal,Pamela Sloan,Département de management,Professeure associée,femme,pamela.sloan@hec.ca,n/d,Stratégie|Parties prenantes|Stratégie et durabilité,https://www.hec.ca/profs/pamela.sloan.html
HEC Montréal,Sylvie St-Onge,Département de management,Professeure titulaire,femme,sylvie.st-onge@hec.ca,514 340-6381,"Gestion de la rémunération|Gestion de la performance ou du rendement|Gouvernance et conseil d’administration|Gestion de sa vie professionnelle|Défis de GRH : conciliation travail-famille, diversité, harcèlements, épuisement professionnel",https://www.hec.ca/profs/sylvie.st-onge.html
HEC Montréal,Joé T. Martineau,Département de management,Professeure adjointe,femme,joe.trempe-martineau@hec.ca,514 340-3823,"Éthique organisationnelle (éthique des affaires, éthique professionnelle)|Neuroéthique organisationnelle|Management|Administration des services de santé (enjeux éthiques et de gouvernance)",https://www.hec.ca/profs/joe.trempe-martineau.html
HEC Montréal,Christian Vandenberghe,Département de management,Professeur titulaire,homme,christian.vandenberghe@hec.ca,514 340-7006,Psychologie industrielle et organisationnelle|Engagement organisationnel|Gestion de la performance|Rétention des talents|Changement et bien-être au travail,https://www.hec.ca/profs/christian.vandenberghe.html
HEC Montréal,Martine Vézina,Département de management,Professeure agrégée,femme,martine.vezina@hec.ca,514 340-7156,Stratégie d'entreprise|Gestion des entreprises collectives|Gestion agroalimentaire,https://www.hec.ca/profs/martine.vezina.html
HEC Montréal,Sylvain M. Audette,Département de marketing,Professeur invité,homme,sylvain.audette@hec.ca,514 340-7306,Recherche commerciale et institutionnelle|Marketing des marchés de l’énergie|Méthodologies d’analyse de la demande|Politiques énergétiques|Marketing des entreprises monopolistiques|Environnement politico-légal et comportements des entreprises,https://www.hec.ca/profs/sylvain.audette.html
HEC Montréal,Johanne Brunet,Département de marketing,Professeure titulaire,femme,johanne.brunet@hec.ca,514 340-6713,Marketing international|Innovation et créativité|Marketing des industries culturelles|Alliances stratégiques internationales|Mesures de performance,https://www.hec.ca/profs/johanne.brunet.html
HEC Montréal,François Colbert,Département de marketing,Professeur titulaire,homme,francois.colbert@hec.ca,514 340-6827,Marketing des arts et de la culture,https://www.hec.ca/profs/francois.colbert.html
HEC Montréal,Alain d'Astous,Département de marketing,Professeur titulaire,homme,alain.dastous@hec.ca,514 340-6416,Comportement du consommateur|Recherche en marketing|Influence du pays d'origine des produits,https://www.hec.ca/profs/alain.dastous.html
HEC Montréal,Danilo Dantas,Département de marketing,Professeur agrégé,homme,danilo.dantas@hec.ca,514 340-7303,Marketing par bases de données|Marketing de la musique|Commerce électronique,https://www.hec.ca/profs/danilo.dantas.html
HEC Montréal,Jonathan Deschênes,Département de marketing,Professeur agrégé,homme,jonathan.deschenes@hec.ca,514 340-6366,"Marketing des organismes de charité, don et collecte de fonds. |Marketing responsable, marketing vert, économie circulaire et consommation responsable. |Approches qualitatives en recherche marketing (techniques projectives, entrevues en profondeur, ethnographie)",https://www.hec.ca/profs/jonathan.deschenes.html
HEC Montréal,Louis Fabien,Département de marketing,Professeur agrégé,homme,louis.fabien@hec.ca,514 340-6423,Gestion du marketing dans les entreprises de services|Gestion de la qualité du service|Gestion du service à la clientèle|Gestion de personnel et marketing|Gestion du marketing dans les organismes publics,https://www.hec.ca/profs/louis.fabien.html
HEC Montréal,Gary Gebhardt,Département de marketing,Professeur agrégé,homme,gary.gebhardt@hec.ca,514 340-6868,,https://www.hec.ca/profs/gary.gebhardt.html
HEC Montréal,Jean-Luc Geha,Département de marketing,Professeur invité,homme,jean-luc.geha@hec.ca,514 340-1655,B2B|Distribution (stratégie et réseau)|Services à la clientèle|Centres d’appels|Ventes en B2B et B2C|Gestion des ventes|Gestion des équipes de ventes en B2B et B2C|Consultation (vente et gestion)|Grandes entreprises (gestion et stratégie),https://www.hec.ca/profs/jean-luc.geha.html
HEC Montréal,Yany Grégoire,Département de marketing,Professeur agrégé,homme,yany.gregoire@hec.ca,514 340-1493,Vengeance et trahison des consommateurs|Gestion de plaintes en ligne|Marketing relationnel|Echecs de service et résolution|Enseignement: stratégie marketing,https://www.hec.ca/profs/yany.gregoire.html
HEC Montréal,Verena Gruber,Département de marketing,Professeure agrégée,femme,verena.gruber@hec.ca,514 340-1172,,https://www.hec.ca/profs/verena.gruber.html
HEC Montréal,Annie Guérard,Département de marketing,Maître d'enseignement,impossible à déterminer,annie.guerard@hec.ca,514 340-6817,,https://www.hec.ca/profs/annie.guerard.html
HEC Montréal,JoAnne Labrecque,Département de marketing,Professeure agrégée,femme,joanne.labrecque@hec.ca,514 340-6800,Distribution alimentaire|Commerce de détail|Satisfaction de la clientèle|Comportement des consommateurs|Activités de loisir,https://www.hec.ca/profs/joanne.labrecque.html
HEC Montréal,Sandra Laporte,Département de marketing,Professeure agrégée,femme,sandra.laporte@hec.ca,514 340-7312,Jugement et décision sous incertitude du consommateur|Design des promotions des ventes et des loteries|Pauvreté et Obésité,https://www.hec.ca/profs/sandra.laporte.html
HEC Montréal,Renaud Legoux,Département de marketing,Professeur agrégé,homme,renaud.legoux@hec.ca,514 340-6997,Comportement du consommateur|Marketing des arts et des industries culturelles|Satisfaction du client|Promotions des ventes,https://www.hec.ca/profs/renaud.legoux.html
HEC Montréal,Bruno Lussier,Département de marketing,Professeur adjoint,homme,bruno.lussier@hec.ca,514 340-1421,Efficacité de la force de vente|Gestion des ventes|Développement d'affaires|Marketing relationnel|Marketing interentreprises (B2B)|Comportement organisationnel positif|Éthique,https://www.hec.ca/profs/bruno.lussier.html
HEC Montréal,Jean-Sébastien Marcoux,Département de marketing,Professeur titulaire,homme,jean-sebastien.marcoux@hec.ca,514 340-7028,Anthropologie de la consommation|Étude des comportements des consommateurs|Analyse de la culture matérielle|Enquête ethnographique,https://www.hec.ca/profs/jean-sebastien.marcoux.html
HEC Montréal,Housni Nafis,Département de marketing,Maître d'enseignement,impossible à déterminer,housni.nafis@hec.ca,514 340-6491,Gestion de marques|Recherche en marketing|Gestion de la relation client|Comportement du consommateur|Marketing interculturel,https://www.hec.ca/profs/housni.nafis.html
HEC Montréal,Marcelo Vinhal Nepomuceno,Département de marketing,Professeur agrégé,homme,marcelo.nepomuceno@hec.ca,514 340-3180,Style de vie anti-consommation|Résistance du consommateur|Hormones et comportement du consommateur|Matérialisme|Marketing interculturel|Médias sociaux et comportement du consommateur,https://www.hec.ca/profs/marcelo.nepomuceno.html
HEC Montréal,Marie-Agnès Parmentier,Département de marketing,Professeure agrégée,femme,marie-agnes.parmentier@hec.ca,514 340-7167,Marque|Communautés de Consommation|Marketing de la Mode|Consommation des Médias et Culture Participative|Méthodes de Recherche Qualitative,https://www.hec.ca/profs/marie-agnes.parmentier.html
HEC Montréal,Matthew Philp,Département de marketing,Professeur adjoint,homme,matthew.philp@hec.ca,514 340-1446,,https://www.hec.ca/profs/matthew.philp.html
HEC Montréal,Sylvain Sénécal,Département de marketing,Professeur titulaire,homme,sylvain.senecal@hec.ca,514 340-6980,Marketing sur Internet|Comportement des consommateurs sur Internet,https://www.hec.ca/profs/sylvain.senecal.html
HEC Montréal,Yannik St-James,Département de marketing,Professeure agrégée,femme,yannik.st-james@hec.ca,514 340-6759,Comportement du consommateur: Projets identitaires des consommateurs; Dimension culturelle et expérientielle de la consommation|Gestion de la marque|Marketing et consommation alimentaire|Approches qualitatives en recherche marketing,https://www.hec.ca/profs/yannik.st-james.html
HEC Montréal,Jean-Jacques Stréliski,Département de marketing,Professeur associé,homme,jean-jacques.streliski@hec.ca,514 340-7008,,https://www.hec.ca/profs/jean-jacques.streliski.html
HEC Montréal,Sihem Taboubi,Département de marketing,Professeure agrégée,femme,sihem.taboubi@hec.ca,514 340-7166,Méthodes quantitatives en marketing|Recherche marketing|Gestion des circuits de distribution|Promotion des ventes,https://www.hec.ca/profs/sihem.taboubi.html
HEC Montréal,Ali Tezer,Département de marketing,Professeur adjoint,homme,ali.tezer@hec.ca,514 340-6340,,https://www.hec.ca/profs/ali.tezer.html
HEC Montréal,Marc Alexandre Tomiuk,Département de marketing,Professeur agrégé,homme,marc-alexandre.tomiuk@hec.ca,514 340-6415,Comportement du consommateur|Marketing des services|Mesures,https://www.hec.ca/profs/marc-alexandre.tomiuk.html
HEC Montréal,Normand Turgeon,Département de marketing,Professeur titulaire,homme,normand.turgeon@hec.ca,514 340-6424,"Gestion stratégique de marché|Stratégie et plan de marketing|Marketing et développement (régional et international)|Marketing, consumérisme et société|Enseignement, formation et recherche en marketing",https://www.hec.ca/profs/normand.turgeon.html
HEC Montréal,Élodie Allain,Département de sciences comptables,Professeure agrégée,femme,elodie.allain@hec.ca,514 340-1416,Contrôle de gestion|Comptabilité de gestion,https://www.hec.ca/profs/elodie.allain.html
HEC Montréal,Yves Bozec,Département de sciences comptables,Professeur titulaire,homme,yves.bozec@hec.ca,514 340-6560,Comptabilité financière|Comptabilité de gestion|Gouvernement d’entreprise|Mesures de la performance|Privatisations,https://www.hec.ca/profs/yves.bozec.html
HEC Montréal,Marie-Claude Brouillette,Département de sciences comptables,Maître d'enseignement,impossible à déterminer,marie-claude.brouillette@hec.ca,514 340-6539,Comptabilité de gestion|Contrôle de gestion|Comptabilité financière,https://www.hec.ca/profs/marie-claude.brouillette.html
HEC Montréal,André Chagnon,Département de sciences comptables,Maître d'enseignement,impossible à déterminer,andre.chagnon@hec.ca,514 340-6667,Impôt sur le revenu des particuliers et des sociétés|Fiscalité de la recherche scientifique et développement expérimental,https://www.hec.ca/profs/andre.chagnon.html
HEC Montréal,Kathleen Comeau,Département de sciences comptables,Maître d'enseignement,impossible à déterminer,kathleen.comeau@hec.ca,514 340-3178,,https://www.hec.ca/profs/kathleen.comeau.html
HEC Montréal,Johnathon Cziffra,Département de sciences comptables,Professeur adjoint,homme,johnathon.cziffra@hec.ca,514 340-3678,,https://www.hec.ca/profs/johnathon.cziffra.html
HEC Montréal,Laurence Daoust,Département de sciences comptables,Professeure adjointe,femme,laurence.daoust@hec.ca,514 340-3856,,https://www.hec.ca/profs/laurence.daoust.html
HEC Montréal,Martine Davidson,Département de sciences comptables,Maître d'enseignement,impossible à déterminer,martine.davidson@hec.ca,514 340-6550,,https://www.hec.ca/profs/martine.davidson.html
HEC Montréal,Simon Dermarkar,Département de sciences comptables,Professeur adjoint,homme,simon.dermarkar@hec.ca,514 340-3622,Audit|Comptabilité financière|Stratégie d'affaires,https://www.hec.ca/profs/simon.dermarkar.html
HEC Montréal,Zoffirath Dissou,Département de sciences comptables,Maître d'enseignement,impossible à déterminer,zoffirath.dissou@hec.ca,514 340-6571,Comptabilité environnementale|Contrôle de gestion|Coûts de l'impartition des services technologiques|Performance financière|Rémunération incitative|Stratégie|Tableaux de bord|Gouvernance,https://www.hec.ca/profs/zoffirath.dissou.html
HEC Montréal,Jackie Di Vito,Département de sciences comptables,Professeure agrégée,femme,jacqueline.divito@hec.ca,514 340-6524,Gouvernance des sociétés|Comptabilité financière|Comptabilité de gestion|Mesures de la performance|Décisions d'investissement,https://www.hec.ca/profs/jacqueline.divito.html
HEC Montréal,Claude Francoeur,Département de sciences comptables,Professeur titulaire,homme,claude.francoeur@hec.ca,514 340-6847,Gouvernance des entreprises|Composition des conseils d’administration|Responsabilité sociale des entreprises|Qualité de l’information financière,https://www.hec.ca/profs/claude.francoeur.html
HEC Montréal,Johane Frenette,Département de sciences comptables,Maître d'enseignement,impossible à déterminer,johane.frenette@hec.ca,514 340-7014,,https://www.hec.ca/profs/johane.frenette.html
HEC Montréal,Claire Garnier,Département de sciences comptables,Professeure adjointe,femme,claire.garnier@hec.ca,514 340-6000,,https://www.hec.ca/profs/claire.garnier.html
HEC Montréal,Nadia Genest,Département de sciences comptables,Chargée d'enseignement,,nadia.genest@hec.ca,514 340-6543,,https://www.hec.ca/profs/nadia.genest.html
HEC Montréal,Till-Arne Hahn,Département de sciences comptables,Chargé d'enseignement,,till-arne.hahn@hec.ca,514 340-6510,,https://www.hec.ca/profs/till-arne.hahn.html
HEC Montréal,Mouna Hazgui,Département de sciences comptables,Professeure adjointe,femme,mouna.hazgui@hec.ca,514 340-6000,Comptabilité financière|Audit|Régulation de la profession comptable,https://www.hec.ca/profs/mouna.hazgui.html
HEC Montréal,Réal Jacques,Département de sciences comptables,Maître d'enseignement,impossible à déterminer,real.jacques@hec.ca,514 340-6389,Coût de revient|Contrôle de gestion|Performance organisationnelle|Mesure de la productivité|Analyse budgétaire,https://www.hec.ca/profs/real.jacques.html
HEC Montréal,Renaud Lachance,Département de sciences comptables,Professeur agrégé,homme,renaud.lachance@hec.ca,514 340-7165,,https://www.hec.ca/profs/renaud.lachance.html
HEC Montréal,Andrée Lafortune,Département de sciences comptables,Professeure titulaire,femme,andree.lafortune@hec.ca,514 340-6529,,https://www.hec.ca/profs/andree.lafortune.html
HEC Montréal,Caroline Lambert,Département de sciences comptables,Professeure agrégée,femme,caroline.lambert@hec.ca,514 340-7794,Profession comptable|Contrôle de gestion|Études de genre,https://www.hec.ca/profs/caroline.lambert.html
HEC Montréal,Suzanne Landry,Département de sciences comptables,Professeure titulaire,femme,suzanne.landry@hec.ca,514 340-6564,Fiscalité d'entreprise et réorganisations|Fiscalité de l'actionnaire-dirigeant/entreprises familiales|Aspects fiscaux de la rémunération|Gouvernance,https://www.hec.ca/profs/suzanne.landry.html
HEC Montréal,Claude Laurin,Département de sciences comptables,Professeur titulaire,homme,claude.laurin@hec.ca,514 340-6536,Comptabilité de gestion|Mesure de la performance organisationnelle|Corporation et gouvernance|Gestion des entreprises d'état|Analyse des états financiers,https://www.hec.ca/profs/claude.laurin.html
HEC Montréal,Andrée Lavigne,Département de sciences comptables,Professeure invitée,femme,andree.lavigne@hec.ca,514 340-7018,Recherche et rédaction d’ouvrages techniques sur l’application des normes d’audit et des normes comptables canadiennes|Pratique professionnelle CPA|Audit et certification (Normes canadiennes d’audit et autres normes canadiennes)|Comptabilité financière intermédiaire et avancée|Normes internationales d'information financière (IFRS)|Normes comptables pour les entreprises à capital fermé (NCECF) au Canada,https://www.hec.ca/profs/andree.lavigne.html
HEC Montréal,Julien Le Maux,Département de sciences comptables,Professeur agrégé,homme,julien.le-maux@hec.ca,514 340-6552,Gouvernance d'entreprise|Lute contre la fraude|Évaluation d'entreprise|Introductions en bourse|Fusions & acquisitions|Analyse financière,https://www.hec.ca/profs/julien.le-maux.html
HEC Montréal,Hugo Lesley,Département de sciences comptables,Maître d'enseignement,impossible à déterminer,hugo.lesley@hec.ca,514 340-7231,Contrôle interne|Fraude|Prévention des pertes|Sécurité corporative|Audit et certification,https://www.hec.ca/profs/hugo.lesley.html
HEC Montréal,Sophie Marmousez,Département de sciences comptables,Professeure agrégée,femme,sophie.marmousez@hec.ca,514 340-6605,,https://www.hec.ca/profs/sophie.marmousez.html
HEC Montréal,Marjolaine Naud,Département de sciences comptables,Professeure agrégée,femme,marjolaine.naud@hec.ca,514 340-6786,Fiscalité corporative|Distribution de surplus fiscaux|Fiscalité environnementale|Instruments financiers des PME (aspects comptables et fiscaux),https://www.hec.ca/profs/marjolaine.naud.html
HEC Montréal,Louise Overbeek,Département de sciences comptables,Maître d'enseignement,impossible à déterminer,louise.overbeek@hec.ca,514 340-1304,,https://www.hec.ca/profs/louise.overbeek.html
HEC Montréal,Danièle Pérusse,Département de sciences comptables,Maître d'enseignement,impossible à déterminer,daniele.perusse@hec.ca,514 340-6526,"Comptabilité financière|Normalisation comptable|Éthique|FCPA, FCGA",https://www.hec.ca/profs/daniele.perusse.html
HEC Montréal,Nicole Prieur,Département de sciences comptables,Professeure titulaire,femme,nicole.prieur@hec.ca,514 340-6519,Impôt des sociétés,https://www.hec.ca/profs/nicole.prieur.html
HEC Montréal,Marie-Ève Quenneville,Département de sciences comptables,Maître d'enseignement,impossible à déterminer,marie-eve.quenneville@hec.ca,514 340-7318,Comptabilité de gestion|Mesure de la performance organisationnelle|Évaluation de la performance d'organismes gouvernementaux,https://www.hec.ca/profs/marie-eve.quenneville.html
HEC Montréal,Philémon Rakoto,Département de sciences comptables,Professeur agrégé,homme,philemon.rakoto@hec.ca,514 340-6517,Gouvernance d'entreprises|Qualité de l'information comptable divulguée|Gestion des résultats comptables|Actifs incorporels|Performance des entreprises technologiques|Application des normes comptables internationales dans les pays en|Voie de développement,https://www.hec.ca/profs/philemon.rakoto.html
HEC Montréal,Eduardo Schiehll,Département de sciences comptables,Professeur titulaire,homme,eduardo.schiehll@hec.ca,514 340-6516,Comptabilité de gestion|Mesure de la performance|Gouvernance d'entreprise|Rémunération de dirigeants,https://www.hec.ca/profs/eduardo.schiehll.html
HEC Montréal,Zvi Singer,Département de sciences comptables,Professeur agrégé,homme,zvi.singer@hec.ca,514 340-1847,,https://www.hec.ca/profs/zvi.singer.html
HEC Montréal,Samuel Sponem,Département de sciences comptables,Professeur agrégé,homme,samuel.sponem@hec.ca,514 340-7019,Contrôle de gestion|Gouvernance|Gestion et société,https://www.hec.ca/profs/samuel.sponem.html
HEC Montréal,Sophie Tessier,Département de sciences comptables,Professeure agrégée,femme,sophie.tessier@hec.ca,514 340-6865,Comptabilité de gestion|Contrôle de gestion|Gestion de l’efficacité énergétique|Développement durable,https://www.hec.ca/profs/sophie.tessier.html
HEC Montréal,Johanne Turbide,Département de sciences comptables,Professeure titulaire,femme,johanne.turbide@hec.ca,514 340-6555,Gestion financière des organismes culturels et communautaires|Gouvernance des organismes à but non lucratif|Gestion stratégique de la performance|Gestion financière pour non-financiers,https://www.hec.ca/profs/johanne.turbide.html
HEC Montréal,Michel Vézina,Département de sciences comptables,Professeur titulaire,homme,michel.vezina@hec.ca,514 340-6534,Impact des technologies de l'information|Vérification et technologies de l'information|Contrôle de gestion|Développement et conception de bases de données,https://www.hec.ca/profs/michel.vezina.html
HEC Montréal,Jean-Pierre Vidal,Département de sciences comptables,Professeur titulaire,homme,jean-pierre.vidal@hec.ca,514 340-6514,Fiscalité internationale (prix de transfert)|Éthique en fiscalité|Méthodologie de recherche en fiscalité,https://www.hec.ca/profs/jean-pierre.vidal.html
HEC Montréal,Olivier Bahn,Département de sciences de la décision,Professeur titulaire,homme,olivier.bahn@hec.ca,514 340-6503,Recherche opérationnelle|Modèles mathématiques en économie / énergie / environnement|Changements climatiques,https://www.hec.ca/profs/olivier.bahn.html
HEC Montréal,François Bellavance,Département de sciences de la décision,Professeur titulaire,homme,francois.bellavance@hec.ca,514 340-6485,,https://www.hec.ca/profs/francois.bellavance.html
HEC Montréal,Hatem Ben Ameur,Département de sciences de la décision,Professeur titulaire,homme,hatem.ben-ameur@hec.ca,514 340-6480,Ingénierie financière|Processus stochastiques|Simulation stochastique|Programmation dynamique et stochstique|Tarification d'option|Mesure de risque|Prévision de faillite,https://www.hec.ca/profs/hatem.ben-ameur.html
HEC Montréal,Michèle Breton,Département de sciences de la décision,Professeure titulaire,femme,michele.breton@hec.ca,514 340-6490,"Optimisation dynamique|Théorie des jeux|Analyse de décision|Modèles mathématiques en finance, en environnement et en énergie",https://www.hec.ca/profs/michele.breton.html
HEC Montréal,Gilles Caporossi,Département de sciences de la décision,Professeur titulaire,homme,gilles.caporossi@hec.ca,514 340-6471,Réseaux complexes|Exploitation de données|Algorithmique|Optimisation combinatoire|Intelligence artificielle,https://www.hec.ca/profs/gilles.caporossi.html
HEC Montréal,Laurent Charlin,Département de sciences de la décision,Professeur adjoint,homme,laurent.charlin@hec.ca,514 340-1482,Apprentissage automatique|Intelligence artificielle|Systèmes de recommandations|Statistique bayésienne|Apprentissage profond,https://www.hec.ca/profs/laurent.charlin.html
HEC Montréal,Fabien Chauny,Département de sciences de la décision,Professeur agrégé,homme,fabien.chauny@hec.ca,514 340-6875,Recherche opérationnelle|Statistiques appliquées,https://www.hec.ca/profs/fabien.chauny.html
HEC Montréal,Rim Cherif,Département de sciences de la décision,Maître d'enseignement,impossible à déterminer,rim.cherif@hec.ca,514 340-6940,Ingénierie financière|Processus de Lévy|Programmation dynamique|Prévision de faillite|Simulation stochastique,https://www.hec.ca/profs/rim.cherif.html
HEC Montréal,Erick Delage,Département de sciences de la décision,Professeur agrégé,homme,erick.delage@hec.ca,514 340-7040,Optimisation sous incertitude|Application de la recherche opérationnelle,https://www.hec.ca/profs/erick.delage.html
HEC Montréal,Michel Denault,Département de sciences de la décision,Professeur titulaire,homme,michel.denault@hec.ca,514 340-7161,Ingénierie financière|Gestion du risque|Produits dérivés liés à l'énergie|Finance environnementale,https://www.hec.ca/profs/michel.denault.html
HEC Montréal,Jacques Desrosiers,Département de sciences de la décision,Professeur titulaire,homme,jacques.desrosiers@hec.ca,514 340-6505,Recherche opérationnelle|Transport aérien|Transport ferroviaire|Distribution - horaires|Optimisation combinatoire,https://www.hec.ca/profs/jacques.desrosiers.html
HEC Montréal,Debbie J. Dupuis,Département de sciences de la décision,Professeure titulaire,femme,debbie.dupuis@hec.ca,514 340-6952,Valeurs extrêmes|Robustesse|Modélisation statistique|Informatique statistique,https://www.hec.ca/profs/debbie.dupuis.html
HEC Montréal,Marc Fredette,Département de sciences de la décision,Professeur titulaire,homme,marc.fredette@hec.ca,514 340-7108,Analyse de données longitudinales|Prédiction|Biostatistique|Modèles à effets aléatoires|Statistique bayésienne,https://www.hec.ca/profs/marc.fredette.html
HEC Montréal,Geneviève Gauthier,Département de sciences de la décision,Professeure titulaire,femme,genevieve.gauthier@hec.ca,514 340-5627,Calcul stochastique|Probabilité et statistique|Modélisation|Ingénierie financière|Tarification|Gestion des risques|Risque de crédit,https://www.hec.ca/profs/genevieve.gauthier.html
HEC Montréal,Francine Giroux,Département de sciences de la décision,Maître d'enseignement,impossible à déterminer,francine.giroux@hec.ca,514 340-6000,,https://www.hec.ca/profs/francine.giroux.html
HEC Montréal,Pierre  Hansen,Département de sciences de la décision,Professeur titulaire,homme,pierre.hansen@hec.ca,514 340-6486,Recherche opérationnelle|Optimisation globale|Classification automatique|Théorie des graphes|Localisation,https://www.hec.ca/profs/pierre.hansen.html
HEC Montréal,Alain Haurie,Département de sciences de la décision,Professeur affilié,homme,alain.haurie@hec.ca,n/d,,https://www.hec.ca/profs/alain.haurie.html
HEC Montréal,Fatiha Kacher,Département de sciences de la décision,Maître d'enseignement,impossible à déterminer,fatiha.kacher@hec.ca,514 340-6897,,https://www.hec.ca/profs/fatiha.kacher.html
HEC Montréal,Aurélie Labbe,Département de sciences de la décision,Professeure agrégée,femme,aurelie.labbe@hec.ca,514 340-3181,,https://www.hec.ca/profs/aurelie.labbe.html
HEC Montréal,Chantal Labbé,Département de sciences de la décision,Professeure agrégée,femme,chantal.labbe@hec.ca,514 340-6723,Processus stochastiques|Probabilité|Ingénierie financière|Optimisation de portefeuille|Contrôle optimal stochastique,https://www.hec.ca/profs/chantal.labbe.html
HEC Montréal,Gilbert Laporte,Département de sciences de la décision,Professeur titulaire,homme,gilbert.laporte@hec.ca,514 340-6504,,https://www.hec.ca/profs/gilbert.laporte.html
HEC Montréal,Denis Larocque,Département de sciences de la décision,Professeur titulaire,homme,denis.larocque@hec.ca,514 340-6488,Méthodes statistiques non paramétriques|Analyse de données multidimensionnelles|Data mining|Consultation statistique,https://www.hec.ca/profs/denis.larocque.html
HEC Montréal,Régis Parent,Département de sciences de la décision,Professeur agrégé,homme,regis.parent@hec.ca,514 340-6894,Statistique|Recherche opérationnelle,https://www.hec.ca/profs/regis.parent.html
HEC Montréal,Sylvain Perron,Département de sciences de la décision,Professeur agrégé,homme,sylvain.perron@hec.ca,514 340-6659,Optimisation combinatoire|Optimisation globale|Programmation mathématique|Génération de colonnes|Classification (clustering) / classification dans les réseaux|Analyse de réseaux complexes|Programmation quadratique,https://www.hec.ca/profs/sylvain.perron.html
HEC Montréal,Pierre-Olivier Pineau,Département de sciences de la décision,Professeur titulaire,homme,pierre-olivier.pineau@hec.ca,514 340-6922,Politiques énergétiques|Marchés de l'électricité|Analyse de décision|Investissement et privatisation dans les pays en voie de développement,https://www.hec.ca/profs/pierre-olivier.pineau.html
HEC Montréal,Jean-François Plante,Département de sciences de la décision,Professeur agrégé,homme,jfplante@hec.ca,514 340-6563,Inférence statistique|Méthodes pondérées|Vraisemblance|Modèles de dépendance (copules)|Statistique non-paramétrique,https://www.hec.ca/profs/jfplante.html
HEC Montréal,Bruno Rémillard,Département de sciences de la décision,Professeur titulaire,homme,bruno.remillard@hec.ca,514 340-6794,Volatilité stochastique|Ingénierie financière|Processus empiriques|Séries chronologiques|Filtrage non linéaire,https://www.hec.ca/profs/bruno.remillard.html
HEC Montréal,Ferdaous Somrani,Département de sciences de la décision,Maître d'enseignement,impossible à déterminer,ferdaous.somrani@hec.ca,514 340-6000,Analyse statistique|Exploitation de données massives|Prédiction|Microéconomie|Macroéconomie|Relations économiques internationales,https://www.hec.ca/profs/ferdaous.somrani.html
HEC Montréal,Patrick Soriano,Département de sciences de la décision,Professeur titulaire,homme,patrick.soriano@hec.ca,514 340-6821,Optimisation combinatoire|Transport|Télécommunications|Recherche opérationnelle,https://www.hec.ca/profs/patrick.soriano.html
HEC Montréal,Jian Tang,Département de sciences de la décision,Professeur adjoint,homme,jian.tang@hec.ca,514 340-3834,,https://www.hec.ca/profs/jian.tang.html
HEC Montréal,Jean Vaillancourt,Département de sciences de la décision,Professeur affilié,homme,jean.vaillancourt@hec.ca,514 340-6472,Probabilités|Équations stochastiques|Jeux aléatoires|Analyse de réseaux sociaux|Fouille de données,https://www.hec.ca/profs/jean.vaillancourt.html
HEC Montréal,Georges Zaccour,Département de sciences de la décision,Professeur titulaire,homme,georges.zaccour@hec.ca,514 340-6430,Théorie des jeux|Diffusion de nouveaux produits|Transport et distribution des hydrocarbures|Gestion de l'environnement|Marketing quantitatif,https://www.hec.ca/profs/georges.zaccour.html
HEC Montréal,Gilbert Babin,Département de technologies de l'information,Professeur titulaire,homme,gilbert.babin@hec.ca,514 340-6291,Modélisation des systèmes d'information|Intégration de systèmes d'information distribués hétérogènes|Traitements distribués sur le Web,https://www.hec.ca/profs/gilbert.babin.html
HEC Montréal,Yannick Brière,Département de technologies de l'information,Maître d'enseignement,impossible à déterminer,yannick.briere@hec.ca,514 340-6499,,https://www.hec.ca/profs/yannick.briere.html
HEC Montréal,Ann-Frances Cameron,Département de technologies de l'information,Professeure agrégée,femme,ann-frances.cameron@hec.ca,514 340-7164,Communication inter-organisationnelle et intra-organisationnelle|Utilisation des TI dans les équipes virtuelles|Impacts des technologies de communication émergentes|Contextes multi-tâches et multicommunicationnels,https://www.hec.ca/profs/ann-frances.cameron.html
HEC Montréal,Line Dubé,Département de technologies de l'information,Professeure titulaire,femme,line.dube@hec.ca,514 340-6765,Gestion de la sécurité de l'information|Gestion des projets TI|Impact des technologies de l'information sur les organisations|Méthodes de recherche qualitatives,https://www.hec.ca/profs/line.dube.html
HEC Montréal,Alina Maria Dulipovici,Département de technologies de l'information,Professeure agrégée,femme,alina-maria.dulipovici@hec.ca,514 340-7301,Gestion de la connaissance et partage des connaissances organisationnelles|Impact des systèmes de gestion de la connaissance sur les organisations|Gestion des projets T.I.|Alignement stratégique des T.I.|Méthodes de recherche qualitatives,https://www.hec.ca/profs/alina-maria.dulipovici.html
HEC Montréal,Camille Grange,Département de technologies de l'information,Professeure adjointe,femme,camille.grange@hec.ca,514 340-3615,"Adoption, utilisation, et valeur des technologies de l'information|Commerce électronique: processus de recherche d'information et de prise de décision des consommateurs|Commerce électronique et médias sociaux: design d'environnements hybrides performants|Transformation numérique des organisations et industries",https://www.hec.ca/profs/camille.grange.html
HEC Montréal,Hyung Koo Lee,Département de technologies de l'information,Professeur adjoint,homme,hyung-koo.lee@hec.ca,514 340-3837,"•	Gestion de projet TI|•	Prise de décisions en projets TI (l’escalade de l’engagement, rapport de statut de projet)|•	Gestion de personnel en TI",https://www.hec.ca/profs/hyung-koo.lee.html
HEC Montréal,Pierre-Majorique Léger,Département de technologies de l'information,Professeur titulaire,homme,pierre-majorique.leger@hec.ca,514 340-7013,Systèmes ERP|Valeur des investissements en technologie de l'information|Collaboration et commerce électronique|Gestion de la technologie et de l'innovation|NeuroIS,https://www.hec.ca/profs/pierre-majorique.leger.html
HEC Montréal,Roman Lukyanenko,Département de technologies de l'information,Professeur adjoint,homme,roman.lukyanenko@hec.ca,514 340-6981,,https://www.hec.ca/profs/roman.lukyanenko.html
HEC Montréal,Michel Mainville,Département de technologies de l'information,Maître d'enseignement,impossible à déterminer,michel.mainville@hec.ca,514 340-6064,,https://www.hec.ca/profs/michel.mainville.html
HEC Montréal,Bogdan Negoita,Département de technologies de l'information,Professeur adjoint,homme,bogdan.negoita@hec.ca,514 340-3675,,https://www.hec.ca/profs/bogdan.negoita.html
HEC Montréal,Ana Ortiz de Guinea Lopez de Arana,Département de technologies de l'information,Professeure agrégée,femme,ana.ortiz-de-guinea@hec.ca,514 340-7817,Processus cognitifs et émotionnels pendant les interactions avec des systèmes d'information|Perceptions au niveau organisationnel et individuel des systèmes d'information|Méthodes quantitatives et leur application à la recherche sur des systèmes d'information,https://www.hec.ca/profs/ana.ortiz-de-guinea.html
HEC Montréal,Guy Paré,Département de technologies de l'information,Professeur titulaire,homme,guy.pare@hec.ca,514 340-6812,Systèmes d'information cliniques|Implantation des technologies de l'information|Gestion du changement technologique|Recherche qualitative|Impacts des technologies de l'information sur les organisations,https://www.hec.ca/profs/guy.pare.html
HEC Montréal,Linda Pepin,Département de technologies de l'information,Maître d'enseignement,impossible à déterminer,linda.pepin@hec.ca,514 340-7190,Informatique de gestion,https://www.hec.ca/profs/linda.pepin.html
HEC Montréal,Suzanne Rivard,Département de technologies de l'information,Professeure titulaire,femme,suzanne.rivard@hec.ca,514 340-6493,Alignement stratégique des T.I.|TI. et nouvelles formes organisationnelles|Impartition des T.I.|Gestion du risque de projets de T.I.,https://www.hec.ca/profs/suzanne.rivard.html
HEC Montréal,Jacques Robert,Département de technologies de l'information,Professeur titulaire,homme,jacques.robert@hec.ca,514 340-6853,Économie du commerce électronique|Analyses des mécanismes d’enchères et de marchés|Applications de la théorie des jeux et de la théorie de l’agence|Économie expérimentale,https://www.hec.ca/profs/jacques.robert.html
HEC Montréal,Jean Talbot,Département de technologies de l'information,Professeur titulaire,homme,jean.talbot@hec.ca,514 340-6494,Gestion des technologies de l'information|Gestion de projets d'informatisation|Technologies de l'information et performance organisationnelle|Internet et les affaires,https://www.hec.ca/profs/jean.talbot.html
HEC Montréal,Stefan Tams,Département de technologies de l'information,Professeur agrégé,homme,stefan.tams@hec.ca,514-340-1814,L'impact du vieillissement sur l'utilisation des technologies|Technologie et du Stress|Le commerce électronique|Gestion des connaissances|Mesure biologique,https://www.hec.ca/profs/stefan.tams.html
HEC Montréal,Ryad Titah,Département de technologies de l'information,Professeur agrégé,homme,ryad.titah@hec.ca,514 340-1464,Gouvernement électronique|Utilisation des systèmes d’information dans les organisations|Rôle des systèmes d’information dans la performance des organisations|NeuroIS|Modélisation non-linéaire|Analyse du discours,https://www.hec.ca/profs/ryad.titah.html
HEC Montréal,Marie-Claude Trudel,Département de technologies de l'information,Professeure agrégée,femme,marie-claude.trudel@hec.ca,514 340-6818,Analyse critique des systèmes d’information|Implantation de systèmes d’information inter-organisationnels|Systèmes d'information dans le domaine hospitalier|Systèmes d’information dans le domaine culturel,https://www.hec.ca/profs/marie-claude.trudel.html
HEC Montréal,Gregory Vial,Département de technologies de l'information,Professeur adjoint,homme,gregory.vial@hec.ca,514 340-1467,,https://www.hec.ca/profs/gregory.vial.html
